@relation R_data_frame

@attribute Age {Young,Midlife,Older}
@attribute Number.of.sexual.partners {Few,Normal,Many}
@attribute First.sexual.intercourse {Early,Normal,Late}
@attribute Num.of.pregnancies {None,Normal,Many}
@attribute Smokes numeric
@attribute Smokes..years. {None,Few,Normal,Many}
@attribute Smokes..packs.year. {None,Some,Normal,Many}
@attribute Hormonal.Contraceptives {0,1}
@attribute Hormonal.Contraceptives..years. {None,Some,Normal,Many}
@attribute IUD {0,1}
@attribute IUD..years. {None,Some,Normal,Many}
@attribute STDs {0,1}
@attribute STDs..number. numeric
@attribute STDs.condylomatosis {0,1}
@attribute STDs.cervical.condylomatosis {0}
@attribute STDs.vaginal.condylomatosis {0,1}
@attribute STDs.vulvo.perineal.condylomatosis {0,1}
@attribute STDs.syphilis {0,1}
@attribute STDs.pelvic.inflammatory.disease {0,1}
@attribute STDs.genital.herpes {0,1}
@attribute STDs.molluscum.contagiosum {0,1}
@attribute STDs.AIDS {0}
@attribute STDs.HIV {0,1}
@attribute STDs.Hepatitis.B {0,1}
@attribute STDs.HPV {0,1}
@attribute STDs..Number.of.diagnosis numeric
@attribute STDs..Time.since.first.diagnosis numeric
@attribute STDs..Time.since.last.diagnosis numeric
@attribute Dx.Cancer {0,1}
@attribute Dx.CIN {0,1}
@attribute Dx.HPV {0,1}
@attribute Dx {0,1}
@attribute Hinselmann {0,1}
@attribute Schiller {0,1}
@attribute Citology {0,1}
@attribute Biopsy {0,1}

@data
Young,Normal,Early,Normal,0,None,None,0,None,0,None,0,0,0,0,0,0,0,0,0,0,0,0,0,0,0,?,?,0,0,0,0,0,0,0,?
Young,Few,Early,Normal,0,None,None,0,None,0,None,0,0,0,0,0,0,0,0,0,0,0,0,0,0,0,?,?,0,0,0,0,0,0,0,?
Midlife,Few,?,Normal,0,None,None,0,None,0,None,0,0,0,0,0,0,0,0,0,0,0,0,0,0,0,?,?,0,0,0,0,0,0,0,?
Older,Normal,Normal,Many,1,Many,Many,1,Some,0,None,0,0,0,0,0,0,0,0,0,0,0,0,0,0,0,?,?,1,0,1,0,0,0,0,?
Midlife,Normal,Late,Many,0,None,None,1,Normal,0,None,0,0,0,0,0,0,0,0,0,0,0,0,0,0,0,?,?,0,0,0,0,0,0,0,?
Midlife,Normal,Late,Normal,0,None,None,0,None,0,None,0,0,0,0,0,0,0,0,0,0,0,0,0,0,0,?,?,0,0,0,0,0,0,0,?
Older,Normal,Normal,Many,1,Many,Some,0,None,1,Normal,0,0,0,0,0,0,0,0,0,0,0,0,0,0,0,?,?,0,0,0,0,1,1,0,?
Young,Few,Late,Normal,0,None,None,1,Some,1,Normal,0,0,0,0,0,0,0,0,0,0,0,0,0,0,0,?,?,0,0,0,0,0,0,0,?
Midlife,Few,Normal,Many,0,None,None,0,None,0,None,0,0,0,0,0,0,0,0,0,0,0,0,0,0,0,?,?,1,0,1,1,0,0,0,?
Midlife,Normal,Early,?,1,?,Some,0,None,?,?,0,0,0,0,0,0,0,0,0,0,0,0,0,0,0,?,?,0,0,0,0,0,0,0,?
Midlife,Normal,Late,Many,0,None,None,1,Some,0,None,0,0,0,0,0,0,0,0,0,0,0,0,0,0,0,?,?,0,0,0,0,0,0,0,?
Midlife,Few,Normal,Normal,0,None,None,1,Normal,0,None,0,0,0,0,0,0,0,0,0,0,0,0,0,0,0,?,?,0,0,0,0,0,0,0,?
Midlife,Normal,Early,Many,0,None,None,1,Normal,1,Normal,0,0,0,0,0,0,0,0,0,0,0,0,0,0,0,?,?,0,0,0,0,0,0,0,?
Midlife,Few,Late,Normal,0,None,None,1,Normal,0,None,0,0,0,0,0,0,0,0,0,0,0,0,0,0,0,?,?,0,0,0,0,0,0,0,?
Midlife,Few,Normal,Many,0,None,None,0,None,1,Normal,0,0,0,0,0,0,0,0,0,0,0,0,0,0,0,?,?,0,0,0,0,0,0,0,?
Midlife,Normal,Normal,Normal,0,None,None,1,Normal,0,None,0,0,0,0,0,0,0,0,0,0,0,0,0,0,0,?,?,0,0,0,0,0,0,0,?
Midlife,Normal,Late,Normal,0,None,None,1,?,0,None,0,0,0,0,0,0,0,0,0,0,0,0,0,0,0,?,?,0,0,0,0,0,0,0,?
Midlife,Normal,Early,Many,0,None,None,1,Some,0,None,0,0,0,0,0,0,0,0,0,0,0,0,0,0,0,?,?,0,0,0,0,0,0,0,?
Midlife,Few,Normal,?,0,None,None,1,Normal,1,Normal,1,2,1,0,0,1,0,0,0,0,0,0,0,0,0,?,?,0,0,0,0,0,0,0,?
Midlife,Few,Late,?,0,None,None,0,None,1,Some,0,0,0,0,0,0,0,0,0,0,0,0,0,0,0,?,?,0,0,0,0,0,0,0,?
Midlife,Few,Normal,Many,0,None,None,1,Normal,0,None,0,0,0,0,0,0,0,0,0,0,0,0,0,0,0,?,?,0,0,0,0,0,0,0,?
Midlife,Normal,Normal,Many,0,None,None,1,Normal,0,None,1,1,0,0,0,0,1,0,0,0,0,0,0,0,1,21,21,0,0,0,0,0,0,0,?
Midlife,Few,Normal,Normal,0,None,None,1,?,0,None,1,2,1,0,0,1,0,0,0,0,0,0,0,0,1,2,2,0,0,0,0,0,1,1,?
Midlife,Few,Normal,Normal,0,None,None,1,Normal,0,None,0,0,0,0,0,0,0,0,0,0,0,0,0,0,0,?,?,1,0,1,0,1,1,0,?
Midlife,Normal,Early,Normal,0,None,None,1,Some,0,None,0,0,0,0,0,0,0,0,0,0,0,0,0,0,0,?,?,0,0,0,0,0,0,0,?
Midlife,Normal,Normal,Normal,0,None,None,0,None,0,None,0,0,0,0,0,0,0,0,0,0,0,0,0,0,0,?,?,0,0,0,0,0,0,0,?
Midlife,Normal,Late,Normal,0,None,None,0,None,1,Some,0,0,0,0,0,0,0,0,0,0,0,0,0,0,0,?,?,0,0,0,0,0,0,0,?
Midlife,Few,Normal,Many,0,None,None,0,None,0,None,0,0,0,0,0,0,0,0,0,0,0,0,0,0,0,?,?,0,0,0,0,0,0,0,?
Midlife,Normal,Late,Normal,1,Few,?,0,None,0,None,0,0,0,0,0,0,0,0,0,0,0,0,0,0,0,?,?,0,0,0,0,0,0,0,?
Midlife,Many,Late,Normal,0,None,None,1,?,0,None,0,0,0,0,0,0,0,0,0,0,0,0,0,0,0,?,?,0,0,0,0,0,0,0,?
Midlife,Normal,Normal,Normal,0,None,None,1,Many,1,?,0,0,0,0,0,0,0,0,0,0,0,0,0,0,0,?,?,0,0,0,0,0,0,0,?
Midlife,Few,Late,Normal,0,None,None,1,Many,1,Normal,0,0,0,0,0,0,0,0,0,0,0,0,0,0,0,?,?,0,0,0,0,0,0,0,?
Midlife,Normal,Normal,Many,1,?,?,1,Normal,0,None,1,1,0,0,0,0,1,0,0,0,0,0,0,0,0,?,?,0,0,0,0,0,0,0,?
Midlife,Normal,Early,Normal,0,None,None,1,?,1,Some,0,0,0,0,0,0,0,0,0,0,0,0,0,0,0,?,?,0,0,0,0,0,0,0,?
Midlife,Few,Early,Normal,0,None,None,1,?,1,Many,0,0,0,0,0,0,0,0,0,0,0,0,0,0,0,?,?,0,0,0,0,0,1,0,?
Midlife,Normal,Normal,Many,0,None,None,1,Some,1,?,0,0,0,0,0,0,0,0,0,0,0,0,0,0,0,?,?,0,0,0,0,0,0,0,?
Midlife,Few,Normal,Many,0,None,None,1,Some,0,None,0,0,0,0,0,0,0,0,0,0,0,0,0,0,0,?,?,0,0,0,0,0,0,0,?
Midlife,?,Normal,Normal,0,None,None,1,?,0,None,0,0,0,0,0,0,0,0,0,0,0,0,0,0,0,?,?,0,0,0,0,0,0,0,?
Midlife,Few,Late,Many,0,None,None,0,None,0,None,0,0,0,0,0,0,0,0,0,0,0,0,0,0,0,?,?,0,0,0,0,0,0,0,?
Midlife,Few,Normal,Normal,0,None,None,1,Some,0,None,0,0,0,0,0,0,0,0,0,0,0,0,0,0,0,?,?,0,0,0,0,0,0,0,?
Midlife,?,Normal,Many,0,None,None,0,None,0,None,0,0,0,0,0,0,0,0,0,0,0,0,0,0,0,?,?,0,0,0,0,0,0,0,?
Midlife,Few,Normal,?,0,None,None,0,None,?,?,1,1,0,0,0,0,0,0,0,0,0,1,0,0,1,15,15,0,1,0,1,0,1,0,?
Midlife,Normal,Normal,Normal,1,?,Some,1,Normal,0,None,0,0,0,0,0,0,0,0,0,0,0,0,0,0,0,?,?,0,0,0,0,0,0,0,?
Midlife,Normal,Normal,Normal,0,None,None,0,None,0,None,0,0,0,0,0,0,0,0,0,0,0,0,0,0,0,?,?,0,0,0,0,0,0,0,?
Midlife,Normal,Normal,Normal,1,Normal,Normal,1,Normal,0,None,0,0,0,0,0,0,0,0,0,0,0,0,0,0,0,?,?,0,0,0,0,0,1,0,?
Midlife,Few,Normal,Many,0,None,None,1,?,1,Normal,0,0,0,0,0,0,0,0,0,0,0,0,0,0,0,?,?,0,0,0,0,0,0,0,?
Midlife,Few,Normal,Normal,?,?,?,1,Normal,0,None,0,0,0,0,0,0,0,0,0,0,0,0,0,0,0,?,?,0,0,0,0,0,0,0,?
Midlife,Few,Normal,Normal,0,None,None,0,None,1,Some,0,0,0,0,0,0,0,0,0,0,0,0,0,0,0,?,?,0,0,0,0,0,0,0,?
Midlife,Few,Normal,Many,0,None,None,0,None,1,Many,0,0,0,0,0,0,0,0,0,0,0,0,0,0,0,?,?,0,0,0,0,0,0,0,?
Midlife,Normal,Normal,Normal,0,None,None,1,?,0,None,0,0,0,0,0,0,0,0,0,0,0,0,0,0,0,?,?,0,0,0,0,0,0,0,?
Midlife,Normal,Early,Many,0,None,None,1,?,1,Some,0,0,0,0,0,0,0,0,0,0,0,0,0,0,0,?,?,0,0,0,0,0,0,0,?
Midlife,Few,Normal,Normal,0,None,None,0,None,0,None,0,0,0,0,0,0,0,0,0,0,0,0,0,0,0,?,?,0,0,0,0,0,0,0,?
Midlife,Normal,Normal,Normal,0,None,None,1,?,0,None,0,0,0,0,0,0,0,0,0,0,0,0,0,0,0,?,?,0,0,0,0,0,0,0,?
Midlife,Normal,Normal,Many,1,Many,Normal,0,None,0,None,0,0,0,0,0,0,0,0,0,0,0,0,0,0,0,?,?,0,0,0,0,0,0,0,?
Midlife,Few,Normal,Normal,0,None,None,1,Normal,0,None,0,0,0,0,0,0,0,0,0,0,0,0,0,0,0,?,?,0,0,0,0,0,0,0,?
Midlife,Normal,Normal,Many,0,None,None,1,Normal,0,None,0,0,0,0,0,0,0,0,0,0,0,0,0,0,0,?,?,0,0,0,0,0,0,0,?
Midlife,Normal,Early,Many,0,None,None,0,None,0,None,0,0,0,0,0,0,0,0,0,0,0,0,0,0,0,?,?,0,0,0,0,0,0,0,?
Midlife,Normal,Late,Many,1,Normal,Some,1,?,0,None,0,0,0,0,0,0,0,0,0,0,0,0,0,0,0,?,?,0,0,0,0,1,1,0,?
Midlife,Few,Normal,Many,0,None,None,1,Some,0,None,0,0,0,0,0,0,0,0,0,0,0,0,0,0,0,?,?,0,0,0,0,1,1,1,?
Midlife,Normal,Normal,Many,0,None,None,1,Normal,1,?,1,2,1,0,0,1,0,0,0,0,0,0,0,0,1,19,19,0,0,0,0,0,0,0,?
Midlife,Normal,Normal,Normal,0,None,None,1,Normal,0,None,0,0,0,0,0,0,0,0,0,0,0,0,0,0,0,?,?,0,0,0,0,0,0,0,?
Midlife,Normal,Normal,Many,1,Many,Many,1,Normal,0,None,0,0,0,0,0,0,0,0,0,0,0,0,0,0,0,?,?,0,0,0,0,0,0,0,?
Midlife,Few,Late,Normal,0,None,None,1,Normal,0,None,0,0,0,0,0,0,0,0,0,0,0,0,0,0,0,?,?,0,0,0,0,0,0,0,?
Midlife,Few,Normal,Normal,0,None,None,1,Normal,1,?,1,2,1,0,0,1,0,0,0,0,0,0,0,0,0,?,?,0,0,0,0,0,0,0,?
Midlife,Few,Early,Many,0,None,None,1,Normal,0,None,0,0,0,0,0,0,0,0,0,0,0,0,0,0,0,?,?,1,0,1,0,0,1,0,?
Midlife,Normal,Normal,Normal,0,None,None,1,Some,1,Normal,0,0,0,0,0,0,0,0,0,0,0,0,0,0,0,?,?,0,0,0,0,0,0,0,?
Midlife,Normal,Normal,Normal,0,None,None,1,Normal,0,None,0,0,0,0,0,0,0,0,0,0,0,0,0,0,0,?,?,0,0,0,0,0,0,0,?
Midlife,Normal,Normal,Normal,1,Many,Many,0,None,1,Normal,0,0,0,0,0,0,0,0,0,0,0,0,0,0,0,?,?,0,0,0,0,0,0,0,?
Midlife,Normal,Normal,Normal,0,None,None,0,None,1,Many,1,2,1,0,0,1,0,0,0,0,0,0,0,0,1,3,3,0,0,0,0,0,0,0,?
Midlife,Normal,Late,Normal,0,None,None,1,?,0,None,0,0,0,0,0,0,0,0,0,0,0,0,0,0,0,?,?,0,0,0,0,0,0,0,?
Midlife,Normal,Normal,Normal,0,None,None,1,Normal,0,None,0,0,0,0,0,0,0,0,0,0,0,0,0,0,0,?,?,0,0,0,0,0,0,0,?
Midlife,?,?,Normal,0,None,None,?,?,?,?,?,?,?,?,?,?,?,?,?,?,?,?,?,?,0,?,?,0,0,0,0,0,0,0,?
Midlife,Few,Late,Normal,0,None,None,1,?,0,None,0,0,0,0,0,0,0,0,0,0,0,0,0,0,0,?,?,0,0,0,0,0,0,0,?
Midlife,Few,Normal,Normal,0,None,None,1,Some,0,None,0,0,0,0,0,0,0,0,0,0,0,0,0,0,0,?,?,0,0,0,0,0,0,0,?
Midlife,Few,Normal,Normal,1,Normal,?,?,?,?,?,?,?,?,?,?,?,?,?,?,?,?,?,?,?,0,?,?,0,0,0,0,0,0,0,?
Midlife,Few,Late,Normal,0,None,None,1,Some,0,None,0,0,0,0,0,0,0,0,0,0,0,0,0,0,0,?,?,0,0,0,0,0,0,0,?
Midlife,Normal,Early,Many,0,None,None,1,Some,1,Some,0,0,0,0,0,0,0,0,0,0,0,0,0,0,0,?,?,0,0,0,0,0,0,0,?
Midlife,Normal,Late,Normal,0,None,None,1,Some,0,None,0,0,0,0,0,0,0,0,0,0,0,0,0,0,0,?,?,0,0,0,0,0,0,0,?
Midlife,Normal,Normal,Many,1,Normal,Some,1,Normal,0,None,1,1,0,0,0,0,1,0,0,0,0,0,0,0,1,12,12,0,0,0,0,0,1,0,?
Midlife,Few,Normal,Normal,0,None,None,1,?,0,None,0,0,0,0,0,0,0,0,0,0,0,0,0,0,0,?,?,0,0,0,0,0,0,0,?
Midlife,Few,Late,Normal,0,None,None,1,?,0,None,0,0,0,0,0,0,0,0,0,0,0,0,0,0,0,?,?,0,0,0,0,0,0,0,?
Midlife,Normal,Early,Normal,1,Many,?,0,None,1,Many,0,0,0,0,0,0,0,0,0,0,0,0,0,0,0,?,?,0,0,0,0,0,0,0,?
Midlife,Few,Normal,Normal,0,None,None,1,Some,1,Some,0,0,0,0,0,0,0,0,0,0,0,0,0,0,0,?,?,0,0,0,0,0,0,0,?
Midlife,Normal,Normal,Normal,0,None,None,1,Normal,0,None,0,0,0,0,0,0,0,0,0,0,0,0,0,0,0,?,?,0,0,0,0,0,0,0,?
Midlife,Few,Early,Normal,0,None,None,0,None,0,None,1,1,0,0,0,0,1,0,0,0,0,0,0,0,1,1,1,0,0,0,0,0,0,0,?
Midlife,Few,Normal,Normal,0,None,None,1,Normal,0,None,0,0,0,0,0,0,0,0,0,0,0,0,0,0,0,?,?,0,0,0,0,0,0,0,?
Midlife,Few,Normal,Normal,0,None,None,1,Normal,0,None,0,0,0,0,0,0,0,0,0,0,0,0,0,0,0,?,?,0,0,0,0,0,0,0,?
Midlife,Normal,Normal,Normal,0,None,None,1,Normal,0,None,0,0,0,0,0,0,0,0,0,0,0,0,0,0,0,?,?,0,0,0,0,0,0,0,?
Midlife,Normal,Normal,Normal,0,None,None,1,Some,0,None,0,0,0,0,0,0,0,0,0,0,0,0,0,0,0,?,?,0,0,0,0,0,0,0,?
Midlife,Few,Late,Normal,0,None,None,0,None,0,None,0,0,0,0,0,0,0,0,0,0,0,0,0,0,0,?,?,0,0,0,0,0,0,0,?
Midlife,Few,Early,Many,0,None,None,?,?,?,?,?,?,?,?,?,?,?,?,?,?,?,?,?,?,0,?,?,0,0,0,0,0,0,0,?
Midlife,Normal,Normal,Many,0,None,None,1,Normal,1,Many,0,0,0,0,0,0,0,0,0,0,0,0,0,0,0,?,?,0,0,0,0,0,0,0,?
Midlife,Normal,Normal,Normal,0,None,None,1,Normal,1,Some,0,0,0,0,0,0,0,0,0,0,0,0,0,0,0,?,?,0,0,0,0,0,0,0,?
Midlife,Few,Late,Normal,0,None,None,1,?,0,None,0,0,0,0,0,0,0,0,0,0,0,0,0,0,0,?,?,0,0,0,0,0,1,1,?
Midlife,Normal,Normal,Normal,0,None,None,0,None,0,None,0,0,0,0,0,0,0,0,0,0,0,0,0,0,0,?,?,0,0,0,0,0,0,0,?
Midlife,Normal,Normal,Normal,0,None,None,?,?,?,?,?,?,?,?,?,?,?,?,?,?,?,?,?,?,0,?,?,0,0,0,0,0,0,0,?
Midlife,Normal,Early,?,1,Normal,Normal,1,Normal,0,None,0,0,0,0,0,0,0,0,0,0,0,0,0,0,0,?,?,0,0,0,0,1,1,1,?
Midlife,Few,Normal,Normal,0,None,None,1,Some,0,None,0,0,0,0,0,0,0,0,0,0,0,0,0,0,0,?,?,0,0,0,0,0,0,0,?
Midlife,Few,Normal,Many,0,None,None,?,?,?,?,?,?,?,?,?,?,?,?,?,?,?,?,?,?,0,?,?,0,0,0,0,0,0,0,?
Midlife,Normal,Normal,Normal,0,None,None,1,Normal,0,None,0,0,0,0,0,0,0,0,0,0,0,0,0,0,0,?,?,0,0,0,0,0,0,0,?
Midlife,Normal,Early,Many,0,None,None,1,?,0,None,0,0,0,0,0,0,0,0,0,0,0,0,0,0,0,?,?,0,0,0,0,0,0,0,?
Midlife,Normal,Normal,Many,0,None,None,0,None,1,Normal,1,1,0,0,0,0,0,0,0,0,0,1,0,0,1,11,11,0,0,0,0,0,0,1,?
Midlife,Normal,Normal,Normal,0,None,None,?,?,?,?,?,?,?,?,?,?,?,?,?,?,?,?,?,?,0,?,?,0,0,0,0,0,0,0,?
Midlife,Normal,Normal,Many,0,None,None,1,Normal,1,Some,0,0,0,0,0,0,0,0,0,0,0,0,0,0,0,?,?,0,0,0,0,0,1,1,?
Midlife,Few,Normal,Normal,0,None,None,1,Normal,0,None,0,0,0,0,0,0,0,0,0,0,0,0,0,0,0,?,?,0,0,0,0,0,0,0,?
Midlife,Normal,Normal,Many,1,Normal,Some,0,None,0,None,0,0,0,0,0,0,0,0,0,0,0,0,0,0,0,?,?,0,0,0,0,0,0,0,?
Midlife,Normal,Normal,Normal,0,None,None,1,Normal,0,None,0,0,0,0,0,0,0,0,0,0,0,0,0,0,0,?,?,0,0,0,0,0,0,0,?
Midlife,Normal,Normal,Normal,1,Few,?,1,?,0,None,0,0,0,0,0,0,0,0,0,0,0,0,0,0,0,?,?,0,0,0,0,0,0,0,?
Midlife,Few,Early,Normal,0,None,None,1,Normal,0,None,0,0,0,0,0,0,0,0,0,0,0,0,0,0,0,?,?,0,0,0,0,0,0,0,?
Midlife,Few,Normal,Normal,0,None,None,?,?,?,?,0,0,0,0,0,0,0,0,0,0,0,0,0,0,0,?,?,0,0,1,1,0,0,0,?
Midlife,Normal,Normal,Normal,0,None,None,1,Normal,0,None,0,0,0,0,0,0,0,0,0,0,0,0,0,0,0,?,?,0,0,0,0,0,0,0,?
Midlife,Many,Early,Normal,1,Many,Normal,?,?,?,?,?,?,?,?,?,?,?,?,?,?,?,?,?,?,0,?,?,0,0,0,0,0,0,0,?
Midlife,Normal,Normal,Normal,0,None,None,1,Normal,0,None,1,2,1,0,0,1,0,0,0,0,0,0,0,0,1,9,9,0,0,0,0,0,0,0,?
Young,Normal,Late,Normal,0,None,None,1,Some,0,None,0,0,0,0,0,0,0,0,0,0,0,0,0,0,0,?,?,0,0,0,0,0,0,0,?
Midlife,Normal,Early,Many,0,None,None,1,?,0,None,0,0,0,0,0,0,0,0,0,0,0,0,0,0,0,?,?,0,0,0,0,0,0,0,?
Midlife,Normal,Early,Normal,0,None,None,0,None,1,Many,0,0,0,0,0,0,0,0,0,0,0,0,0,0,0,?,?,0,0,0,0,0,0,0,?
Midlife,Normal,Normal,Normal,0,None,None,0,None,0,None,0,0,0,0,0,0,0,0,0,0,0,0,0,0,0,?,?,0,0,0,0,0,0,0,?
Midlife,Normal,Normal,Normal,?,?,?,?,?,?,?,?,?,?,?,?,?,?,?,?,?,?,?,?,?,0,?,?,0,0,0,0,0,0,0,?
Midlife,Few,Normal,Normal,0,None,None,1,Normal,0,None,0,0,0,0,0,0,0,0,0,0,0,0,0,0,0,?,?,0,0,0,0,0,0,0,?
Midlife,Normal,Early,Normal,0,None,None,1,Some,0,None,0,0,0,0,0,0,0,0,0,0,0,0,0,0,0,?,?,0,0,0,0,0,0,0,?
Midlife,Few,Normal,Many,0,None,None,0,None,0,None,0,0,0,0,0,0,0,0,0,0,0,0,0,0,0,?,?,0,0,0,0,0,0,0,?
Midlife,Normal,Early,Normal,0,None,None,1,Normal,0,None,0,0,0,0,0,0,0,0,0,0,0,0,0,0,0,?,?,0,0,0,0,0,0,0,?
Midlife,Normal,Early,Many,0,None,None,1,Normal,0,None,0,0,0,0,0,0,0,0,0,0,0,0,0,0,0,?,?,0,0,0,0,0,0,0,?
Midlife,Normal,Normal,?,0,None,None,1,Some,?,?,1,2,1,0,0,1,0,0,0,0,0,0,0,0,1,1,1,0,0,0,0,0,0,0,?
Midlife,Normal,Normal,Many,0,None,None,1,Normal,0,None,0,0,0,0,0,0,0,0,0,0,0,0,0,0,0,?,?,0,0,0,0,0,0,0,?
Midlife,Normal,Normal,Many,1,Normal,Some,0,None,0,None,0,0,0,0,0,0,0,0,0,0,0,0,0,0,0,?,?,0,0,0,0,0,0,0,?
Midlife,Few,Normal,Normal,0,None,None,0,None,0,None,0,0,0,0,0,0,0,0,0,0,0,0,0,0,0,?,?,0,0,0,0,0,0,0,?
Midlife,Few,Early,Many,0,None,None,0,None,1,Normal,0,0,0,0,0,0,0,0,0,0,0,0,0,0,0,?,?,0,0,0,0,0,0,0,?
Midlife,Few,Late,Normal,0,None,None,0,None,0,None,0,0,0,0,0,0,0,0,0,0,0,0,0,0,0,?,?,0,0,0,0,0,0,0,?
Midlife,Few,Early,Many,0,None,None,1,Normal,0,None,0,0,0,0,0,0,0,0,0,0,0,0,0,0,0,?,?,0,0,0,0,0,0,0,?
Midlife,Few,Normal,Many,0,None,None,1,Normal,0,None,0,0,0,0,0,0,0,0,0,0,0,0,0,0,0,?,?,0,0,0,0,0,0,0,?
Midlife,?,Early,Normal,1,Many,Some,0,None,0,None,1,1,0,0,0,0,0,0,0,0,0,1,0,0,1,3,3,0,0,0,0,1,1,0,?
Midlife,Few,Late,Normal,0,None,None,1,?,0,None,0,0,0,0,0,0,0,0,0,0,0,0,0,0,0,?,?,0,0,0,0,0,0,0,?
Midlife,Normal,Normal,Normal,1,Normal,Some,1,?,0,None,0,0,0,0,0,0,0,0,0,0,0,0,0,0,0,?,?,0,0,0,0,0,0,0,?
Midlife,Normal,Early,Normal,0,None,None,1,Normal,1,Some,1,2,1,0,0,1,0,0,0,0,0,0,0,0,1,7,7,0,0,0,0,0,0,1,?
Midlife,Normal,Early,Normal,0,None,None,0,None,1,Normal,0,0,0,0,0,0,0,0,0,0,0,0,0,0,0,?,?,0,0,0,0,0,0,0,?
Midlife,Few,Normal,Normal,0,None,None,?,?,?,?,0,0,0,0,0,0,0,0,0,0,0,0,0,0,0,?,?,0,0,0,0,0,0,0,?
Midlife,Normal,Normal,Normal,0,None,None,1,Some,0,None,0,0,0,0,0,0,0,0,0,0,0,0,0,0,0,?,?,0,0,0,0,0,0,0,?
Midlife,Few,Late,Normal,0,None,None,0,None,0,None,0,0,0,0,0,0,0,0,0,0,0,0,0,0,0,?,?,0,0,0,0,0,0,0,?
Midlife,Few,Early,Normal,0,None,None,1,?,1,Many,0,0,0,0,0,0,0,0,0,0,0,0,0,0,0,?,?,0,0,0,0,0,0,0,?
Midlife,Few,Late,Normal,0,None,None,0,None,1,Normal,0,0,0,0,0,0,0,0,0,0,0,0,0,0,0,?,?,0,0,0,0,0,0,1,?
Young,Normal,Normal,Normal,0,None,None,?,?,?,?,?,?,?,?,?,?,?,?,?,?,?,?,?,?,0,?,?,0,0,0,0,0,0,0,?
Midlife,Normal,Early,Normal,1,Many,Normal,?,?,?,?,?,?,?,?,?,?,?,?,?,?,?,?,?,?,0,?,?,0,0,0,0,0,0,0,?
Midlife,Few,Normal,Normal,0,None,None,?,?,?,?,?,?,?,?,?,?,?,?,?,?,?,?,?,?,0,?,?,0,0,0,0,0,0,0,?
Midlife,Few,Normal,Normal,0,None,None,1,Some,0,None,0,0,0,0,0,0,0,0,0,0,0,0,0,0,0,?,?,0,0,0,0,0,0,0,?
Midlife,Normal,Early,Many,1,?,?,1,Normal,0,None,0,0,0,0,0,0,0,0,0,0,0,0,0,0,0,?,?,0,0,0,0,0,0,0,?
Midlife,Normal,Early,Normal,0,None,None,1,?,1,Normal,0,0,0,0,0,0,0,0,0,0,0,0,0,0,0,?,?,0,0,0,0,0,0,0,?
Midlife,Normal,Early,Many,0,None,None,0,None,0,None,1,1,0,0,0,0,1,0,0,0,0,0,0,0,1,8,8,0,0,0,0,0,0,0,?
Midlife,Normal,Normal,Many,0,None,None,1,Some,0,None,0,0,0,0,0,0,0,0,0,0,0,0,0,0,0,?,?,0,0,0,0,0,0,0,?
Midlife,Normal,Early,Many,0,None,None,?,?,?,?,?,?,?,?,?,?,?,?,?,?,?,?,?,?,0,?,?,0,0,0,0,0,0,0,?
Midlife,Few,Normal,Normal,0,None,None,1,Some,0,None,0,0,0,0,0,0,0,0,0,0,0,0,0,0,0,?,?,0,0,0,0,0,0,0,?
Midlife,Few,Normal,Normal,0,None,None,0,None,0,None,0,0,0,0,0,0,0,0,0,0,0,0,0,0,0,?,?,0,0,0,0,0,0,0,?
Young,Normal,Normal,Normal,0,None,None,1,Normal,0,None,0,0,0,0,0,0,0,0,0,0,0,0,0,0,0,?,?,0,0,0,0,1,1,1,?
Young,Few,Normal,Normal,0,None,None,1,Some,1,?,0,0,0,0,0,0,0,0,0,0,0,0,0,0,0,?,?,0,0,0,0,0,0,0,?
Midlife,Few,Early,Normal,0,None,None,1,Normal,0,None,0,0,0,0,0,0,0,0,0,0,0,0,0,0,0,?,?,0,0,0,0,0,0,0,?
Midlife,Normal,Normal,Normal,1,Normal,?,1,Normal,0,None,0,0,0,0,0,0,0,0,0,0,0,0,0,0,0,?,?,0,0,0,0,0,0,0,?
Midlife,Few,Normal,Normal,0,None,None,1,Normal,0,None,0,0,0,0,0,0,0,0,0,0,0,0,0,0,0,?,?,0,0,0,0,0,0,0,?
Midlife,?,Normal,Normal,0,None,None,1,Normal,0,None,0,0,0,0,0,0,0,0,0,0,0,0,0,0,0,?,?,0,0,0,0,0,0,0,?
Midlife,Few,Late,Normal,0,None,None,0,None,0,None,0,0,0,0,0,0,0,0,0,0,0,0,0,0,0,?,?,0,0,0,0,0,0,0,?
Midlife,Few,Normal,Normal,0,None,None,1,Normal,0,None,0,0,0,0,0,0,0,0,0,0,0,0,0,0,0,?,?,0,0,0,0,0,0,0,?
Midlife,Few,Early,Normal,0,None,None,1,Normal,1,Some,0,0,0,0,0,0,0,0,0,0,0,0,0,0,0,?,?,0,0,0,0,0,0,0,?
Midlife,Few,Normal,Normal,0,None,None,1,Normal,0,None,0,0,0,0,0,0,0,0,0,0,0,0,0,0,0,?,?,0,0,0,0,0,0,0,?
Midlife,Few,Late,Normal,0,None,None,1,Some,0,None,0,0,0,0,0,0,0,0,0,0,0,0,0,0,0,?,?,0,0,0,0,0,0,0,?
Midlife,Normal,Early,Many,0,None,None,1,Some,0,None,0,0,0,0,0,0,0,0,0,0,0,0,0,0,0,?,?,0,0,0,0,0,0,0,?
Midlife,?,Normal,Normal,0,None,None,?,?,?,?,?,?,?,?,?,?,?,?,?,?,?,?,?,?,0,?,?,0,0,0,0,0,0,0,?
Midlife,Normal,Normal,Normal,0,None,None,1,Normal,1,Normal,1,1,0,0,0,0,0,0,0,0,0,1,0,0,1,3,3,0,0,0,0,0,0,0,?
Midlife,Few,Normal,Normal,0,None,None,1,Normal,0,None,0,0,0,0,0,0,0,0,0,0,0,0,0,0,0,?,?,0,0,0,0,0,0,0,?
Midlife,Few,Normal,?,0,None,None,0,None,1,Some,0,0,0,0,0,0,0,0,0,0,0,0,0,0,0,?,?,0,0,0,0,0,0,0,?
Midlife,Normal,Normal,Normal,0,None,None,0,None,1,Some,0,0,0,0,0,0,0,0,0,0,0,0,0,0,0,?,?,0,0,0,0,0,0,0,?
Young,Normal,Normal,Many,0,None,None,1,Normal,0,None,0,0,0,0,0,0,0,0,0,0,0,0,0,0,0,?,?,0,0,0,0,0,0,0,?
Young,Normal,Normal,Normal,0,None,None,1,?,0,None,1,1,0,0,0,0,1,0,0,0,0,0,0,0,1,7,7,0,0,0,0,0,0,0,?
Young,Few,Normal,Normal,1,?,?,1,Normal,0,None,0,0,0,0,0,0,0,0,0,0,0,0,0,0,0,?,?,0,0,0,0,0,0,0,?
Midlife,Few,Normal,Normal,0,None,None,1,Normal,0,None,0,0,0,0,0,0,0,0,0,0,0,0,0,0,0,?,?,0,0,0,0,0,0,0,?
Midlife,Normal,Early,Normal,0,None,None,0,None,0,None,1,1,0,0,0,0,0,0,0,0,0,1,0,0,1,16,16,0,0,0,0,0,0,0,?
Midlife,Normal,Early,Many,1,Normal,Normal,0,None,0,None,0,0,0,0,0,0,0,0,0,0,0,0,0,0,0,?,?,0,0,0,0,0,0,0,?
Young,Few,Normal,Normal,0,None,None,1,Some,0,None,0,0,0,0,0,0,0,0,0,0,0,0,0,0,0,?,?,0,0,0,0,0,0,0,?
Midlife,Few,Normal,Normal,0,None,None,?,?,?,?,?,?,?,?,?,?,?,?,?,?,?,?,?,?,0,?,?,0,0,0,0,0,0,0,?
Midlife,Normal,Normal,Normal,0,None,None,1,Some,0,None,0,0,0,0,0,0,0,0,0,0,0,0,0,0,0,?,?,0,0,0,0,0,0,0,?
Midlife,Normal,Normal,Many,0,None,None,?,?,?,?,?,?,?,?,?,?,?,?,?,?,?,?,?,?,0,?,?,0,0,0,0,0,0,0,?
Midlife,Few,Normal,Normal,0,None,None,1,Normal,0,None,0,0,0,0,0,0,0,0,0,0,0,0,0,0,0,?,?,0,0,0,0,0,0,0,?
Young,Few,Early,Normal,0,None,None,1,Some,1,Normal,0,0,0,0,0,0,0,0,0,0,0,0,0,0,0,?,?,0,0,0,0,0,0,0,?
Midlife,Few,Normal,Normal,0,None,None,0,None,0,None,0,0,0,0,0,0,0,0,0,0,0,0,0,0,0,?,?,0,0,0,0,0,0,0,?
Young,Normal,?,Many,0,None,None,1,?,0,None,0,0,0,0,0,0,0,0,0,0,0,0,0,0,0,?,?,0,0,0,0,0,0,0,?
Midlife,Few,Normal,Normal,0,None,None,0,None,0,None,0,0,0,0,0,0,0,0,0,0,0,0,0,0,0,?,?,0,0,0,0,0,0,0,?
Young,Few,Normal,Normal,0,None,None,1,?,1,Some,0,0,0,0,0,0,0,0,0,0,0,0,0,0,0,?,?,0,0,0,0,0,0,0,?
Midlife,Few,Normal,?,0,None,None,1,Normal,0,None,0,0,0,0,0,0,0,0,0,0,0,0,0,0,0,?,?,0,0,0,0,1,1,0,?
Young,Many,Normal,Normal,?,?,?,0,None,0,None,1,2,1,0,0,1,0,0,0,0,0,0,0,0,1,6,6,0,0,0,0,0,0,0,?
Midlife,Normal,Normal,Normal,1,Normal,Normal,1,Normal,0,None,1,1,0,0,0,0,0,0,0,0,0,1,0,0,1,2,2,0,0,0,0,0,0,0,?
Midlife,Normal,Normal,Normal,0,None,None,1,Some,0,None,0,0,0,0,0,0,0,0,0,0,0,0,0,0,0,?,?,1,0,1,1,0,0,1,?
Young,Few,Normal,Normal,0,None,None,1,Normal,?,?,?,?,?,?,?,?,?,?,?,?,?,?,?,?,0,?,?,0,0,0,0,0,0,0,?
Midlife,Many,Normal,Normal,0,None,None,1,Some,0,None,0,0,0,0,0,0,0,0,0,0,0,0,0,0,0,?,?,0,0,0,0,0,0,0,?
Midlife,Normal,Early,Normal,0,None,None,1,Some,1,?,0,0,0,0,0,0,0,0,0,0,0,0,0,0,0,?,?,0,0,0,0,1,1,0,?
Midlife,Few,Normal,Many,0,None,None,1,Some,0,None,0,0,0,0,0,0,0,0,0,0,0,0,0,0,0,?,?,0,0,0,0,0,0,0,?
Young,Many,Normal,Normal,1,Normal,?,?,?,?,?,?,?,?,?,?,?,?,?,?,?,?,?,?,?,0,?,?,0,0,0,0,0,0,0,?
Young,Normal,Normal,Normal,0,None,None,1,Some,0,None,0,0,0,0,0,0,0,0,0,0,0,0,0,0,0,?,?,0,0,0,0,0,0,0,?
Young,Few,Normal,Normal,0,None,None,1,Normal,0,None,0,0,0,0,0,0,0,0,0,0,0,0,0,0,0,?,?,0,0,0,0,0,0,0,?
Midlife,Normal,Normal,Normal,0,None,None,0,None,0,None,0,0,0,0,0,0,0,0,0,0,0,0,0,0,0,?,?,0,0,0,0,0,0,0,?
Young,Normal,Normal,?,0,None,None,1,Some,?,?,0,0,0,0,0,0,0,0,0,0,0,0,0,0,0,?,?,0,1,0,1,0,0,0,?
Midlife,Few,Normal,Normal,0,None,None,0,None,0,None,0,0,0,0,0,0,0,0,0,0,0,0,0,0,0,?,?,0,0,0,0,0,0,0,?
Midlife,Few,Normal,Normal,0,None,None,0,None,0,None,0,0,0,0,0,0,0,0,0,0,0,0,0,0,0,?,?,0,0,0,0,0,0,0,?
Young,Many,Normal,Normal,0,None,None,0,None,0,None,0,0,0,0,0,0,0,0,0,0,0,0,0,0,0,?,?,0,0,0,0,0,0,0,?
Young,Normal,Normal,Many,1,Few,?,0,None,0,None,0,0,0,0,0,0,0,0,0,0,0,0,0,0,0,?,?,0,0,0,0,0,0,0,?
Midlife,Few,Early,Normal,1,Normal,Some,1,Some,0,None,1,3,1,0,0,1,1,0,0,0,0,0,0,0,1,5,5,0,0,0,0,0,0,0,?
Midlife,Few,Normal,Normal,0,None,None,1,?,1,Some,1,2,1,0,0,1,0,0,0,0,0,0,0,0,1,7,7,0,0,0,0,1,1,0,?
Young,Few,Normal,Normal,0,None,None,0,None,0,None,0,0,0,0,0,0,0,0,0,0,0,0,0,0,0,?,?,0,0,0,0,0,0,0,?
Young,Normal,Normal,Normal,0,None,None,1,?,0,None,0,0,0,0,0,0,0,0,0,0,0,0,0,0,0,?,?,0,0,0,0,1,1,1,?
Midlife,Few,Normal,Normal,0,None,None,1,Some,0,None,0,0,0,0,0,0,0,0,0,0,0,0,0,0,0,?,?,0,0,0,0,0,0,0,?
Young,Normal,Normal,Normal,0,None,None,1,Some,0,None,0,0,0,0,0,0,0,0,0,0,0,0,0,0,0,?,?,0,0,0,0,0,0,0,?
Midlife,Normal,Normal,Normal,0,None,None,1,?,0,None,0,0,0,0,0,0,0,0,0,0,0,0,0,0,0,?,?,0,0,0,0,0,0,0,?
Young,Normal,Early,Normal,0,None,None,1,Normal,0,None,0,0,0,0,0,0,0,0,0,0,0,0,0,0,0,?,?,0,0,0,0,0,0,0,?
Young,Normal,Early,Many,0,None,None,1,Some,1,Some,0,0,0,0,0,0,0,0,0,0,0,0,0,0,0,?,?,0,0,0,0,0,0,0,?
Midlife,Few,Late,Normal,0,None,None,0,None,0,None,0,0,0,0,0,0,0,0,0,0,0,0,0,0,0,?,?,0,0,0,0,0,0,0,?
Young,Normal,Early,Normal,1,Normal,Some,?,?,?,?,1,1,0,0,0,0,0,0,0,0,0,1,0,0,1,6,6,0,0,0,0,0,0,0,?
Midlife,Normal,Early,Many,1,Normal,Some,1,Normal,1,Normal,1,2,1,0,0,1,0,0,0,0,0,0,0,0,1,10,10,0,0,0,0,0,0,0,?
Midlife,Few,Normal,Normal,0,None,None,1,Normal,0,None,0,0,0,0,0,0,0,0,0,0,0,0,0,0,0,?,?,0,0,0,0,1,1,0,?
Young,Few,Late,Normal,0,None,None,1,?,0,None,0,0,0,0,0,0,0,0,0,0,0,0,0,0,0,?,?,0,0,0,0,0,0,0,?
Midlife,Normal,Normal,Normal,1,Normal,Some,1,Normal,0,None,0,0,0,0,0,0,0,0,0,0,0,0,0,0,0,?,?,0,0,0,0,1,1,0,?
Young,Few,Normal,Normal,0,None,None,1,Normal,0,None,0,0,0,0,0,0,0,0,0,0,0,0,0,0,0,?,?,0,0,0,0,0,0,0,?
Midlife,Normal,Normal,Many,0,None,None,1,Some,0,None,0,0,0,0,0,0,0,0,0,0,0,0,0,0,0,?,?,0,0,0,0,0,0,0,?
Young,Normal,Normal,Normal,1,Few,?,1,Some,0,None,0,0,0,0,0,0,0,0,0,0,0,0,0,0,0,?,?,0,0,0,0,0,0,0,?
Young,?,Normal,Normal,0,None,None,?,?,?,?,?,?,?,?,?,?,?,?,?,?,?,?,?,?,0,?,?,0,0,0,0,0,0,0,?
Young,?,?,Normal,0,None,None,1,Some,0,None,0,0,0,0,0,0,0,0,0,0,0,0,0,0,0,?,?,0,0,0,0,0,0,0,?
Midlife,Few,Normal,Normal,0,None,None,?,?,?,?,1,1,0,0,0,0,1,0,0,0,0,0,0,0,1,8,8,0,0,0,0,0,0,0,?
Young,Few,Early,Normal,0,None,None,1,?,0,None,0,0,0,0,0,0,0,0,0,0,0,0,0,0,0,?,?,0,0,0,0,0,0,0,?
Young,Few,Normal,Many,0,None,None,0,None,0,None,1,1,0,0,0,0,0,0,0,0,0,1,0,0,1,4,4,0,0,0,0,1,1,0,?
Midlife,Many,Early,Normal,0,None,None,?,?,?,?,?,?,?,?,?,?,?,?,?,?,?,?,?,?,0,?,?,0,0,0,0,0,0,0,?
Young,Few,Normal,Normal,0,None,None,0,None,0,None,0,0,0,0,0,0,0,0,0,0,0,0,0,0,0,?,?,0,0,0,0,0,0,0,?
Young,Normal,Early,Normal,1,Normal,?,0,None,0,None,1,2,1,0,0,1,0,0,0,0,0,0,0,0,1,5,5,0,0,0,0,0,1,0,?
Midlife,Few,Normal,Normal,0,None,None,?,?,?,?,?,?,?,?,?,?,?,?,?,?,?,?,?,?,0,?,?,0,0,0,0,0,0,0,?
Midlife,Normal,Early,Many,0,None,None,1,Normal,0,None,0,0,0,0,0,0,0,0,0,0,0,0,0,0,0,?,?,0,1,0,1,0,0,0,?
Young,Few,Normal,Normal,0,None,None,1,Some,0,None,0,0,0,0,0,0,0,0,0,0,0,0,0,0,0,?,?,0,0,0,0,0,0,0,?
Young,Normal,Early,Many,0,None,None,0,None,1,Normal,0,0,0,0,0,0,0,0,0,0,0,0,0,0,0,?,?,0,0,0,0,0,0,0,?
Young,Normal,Normal,Normal,0,None,None,1,Some,0,None,0,0,0,0,0,0,0,0,0,0,0,0,0,0,0,?,?,0,0,0,0,0,0,0,?
Young,Few,Normal,Normal,0,None,None,1,?,0,None,0,0,0,0,0,0,0,0,0,0,0,0,0,0,0,?,?,0,0,0,0,0,0,0,?
Young,?,Normal,Normal,0,None,None,?,?,?,?,?,?,?,?,?,?,?,?,?,?,?,?,?,?,0,?,?,0,0,0,0,0,0,0,?
Young,Few,Normal,Normal,0,None,None,1,?,0,None,0,0,0,0,0,0,0,0,0,0,0,0,0,0,0,?,?,0,0,0,0,0,0,0,?
Young,Few,Early,Normal,0,None,None,1,Normal,0,None,1,1,0,0,0,0,0,0,0,0,0,1,0,0,1,2,2,0,0,0,0,0,0,0,?
Young,Few,Normal,Normal,0,None,None,?,?,?,?,1,1,0,0,0,0,0,0,0,0,0,1,0,0,1,4,4,0,0,0,0,0,0,0,?
Midlife,Normal,Normal,Many,0,None,None,1,Normal,0,None,0,0,0,0,0,0,0,0,0,0,0,0,0,0,0,?,?,0,0,0,0,0,0,0,?
Midlife,Normal,Early,Normal,1,Normal,?,1,Normal,0,None,0,0,0,0,0,0,0,0,0,0,0,0,0,0,0,?,?,0,0,0,0,0,0,0,?
Young,Few,Normal,Normal,0,None,None,1,Some,0,None,0,0,0,0,0,0,0,0,0,0,0,0,0,0,0,?,?,0,0,0,0,0,0,0,?
Young,Few,Normal,Normal,0,None,None,1,Normal,0,None,0,0,0,0,0,0,0,0,0,0,0,0,0,0,0,?,?,0,0,0,0,0,0,0,?
Midlife,Few,Late,Normal,0,None,None,1,?,0,None,0,0,0,0,0,0,0,0,0,0,0,0,0,0,0,?,?,0,0,0,0,0,0,0,?
Young,Many,Normal,Normal,0,None,None,?,?,?,?,?,?,?,?,?,?,?,?,?,?,?,?,?,?,0,?,?,0,0,0,0,0,0,0,?
Young,Normal,Normal,Normal,0,None,None,0,None,0,None,0,0,0,0,0,0,0,0,0,0,0,0,0,0,0,?,?,0,0,0,0,0,0,0,?
Young,Few,Normal,Normal,0,None,None,1,Some,0,None,0,0,0,0,0,0,0,0,0,0,0,0,0,0,0,?,?,0,0,0,0,0,0,0,?
Midlife,Few,Normal,Normal,0,None,None,1,Normal,0,None,0,0,0,0,0,0,0,0,0,0,0,0,0,0,0,?,?,0,0,0,0,0,0,0,?
Young,Few,Normal,Normal,0,None,None,1,?,0,None,0,0,0,0,0,0,0,0,0,0,0,0,0,0,0,?,?,0,0,0,0,0,0,0,?
Young,Few,Normal,Normal,0,None,None,1,Normal,0,None,0,0,0,0,0,0,0,0,0,0,0,0,0,0,0,?,?,0,0,0,0,0,0,0,?
Young,Normal,Early,Normal,0,None,None,1,?,0,None,0,0,0,0,0,0,0,0,0,0,0,0,0,0,0,?,?,0,0,0,0,0,0,0,?
Young,Few,Normal,Normal,0,None,None,1,?,0,None,0,0,0,0,0,0,0,0,0,0,0,0,0,0,0,?,?,0,0,0,0,0,0,0,?
Young,Few,Normal,Normal,0,None,None,1,?,0,None,0,0,0,0,0,0,0,0,0,0,0,0,0,0,0,?,?,0,0,0,0,1,1,0,?
Young,Few,Normal,Normal,1,Normal,Some,1,Normal,0,None,0,0,0,0,0,0,0,0,0,0,0,0,0,0,0,?,?,0,0,0,0,0,0,0,?
Young,Few,Early,Normal,0,None,None,0,None,0,None,0,0,0,0,0,0,0,0,0,0,0,0,0,0,0,?,?,0,0,0,0,0,0,0,?
Young,Normal,Normal,Normal,0,None,None,0,None,0,None,0,0,0,0,0,0,0,0,0,0,0,0,0,0,0,?,?,0,0,0,0,0,0,0,?
Young,Few,Normal,Normal,0,None,None,1,?,0,None,0,0,0,0,0,0,0,0,0,0,0,0,0,0,0,?,?,0,0,0,0,0,0,0,?
Young,Normal,Normal,Normal,0,None,None,?,?,?,?,?,?,?,?,?,?,?,?,?,?,?,?,?,?,0,?,?,0,0,0,0,0,0,0,?
Young,Normal,Normal,Normal,0,None,None,0,None,0,None,1,2,1,0,0,1,0,0,0,0,0,0,0,0,0,?,?,0,0,0,0,1,1,0,?
Young,Normal,Normal,Normal,0,None,None,1,?,0,None,0,0,0,0,0,0,0,0,0,0,0,0,0,0,0,?,?,0,0,0,0,0,0,0,?
Young,Many,Early,Normal,1,Normal,Normal,1,Normal,0,None,0,0,0,0,0,0,0,0,0,0,0,0,0,0,0,?,?,0,0,0,0,0,0,0,?
Midlife,Few,Early,Many,0,None,None,1,Normal,0,None,0,0,0,0,0,0,0,0,0,0,0,0,0,0,0,?,?,0,0,0,0,0,0,0,?
Young,Few,Normal,Normal,0,None,None,0,None,0,None,0,0,0,0,0,0,0,0,0,0,0,0,0,0,0,?,?,0,0,0,0,0,0,0,?
Young,Few,Early,Normal,0,None,None,0,None,1,Normal,0,0,0,0,0,0,0,0,0,0,0,0,0,0,0,?,?,0,0,0,0,0,0,0,?
Young,Few,Early,Many,1,?,?,?,?,?,?,?,?,?,?,?,?,?,?,?,?,?,?,?,?,0,?,?,0,0,0,0,0,0,0,?
Young,Few,Early,Normal,1,Normal,?,1,Normal,0,None,0,0,0,0,0,0,0,0,0,0,0,0,0,0,0,?,?,0,0,0,0,0,1,0,?
Young,?,Normal,?,0,None,None,0,None,0,None,0,0,0,0,0,0,0,0,0,0,0,0,0,0,0,?,?,0,0,0,0,0,0,0,?
Young,Few,Normal,Normal,0,None,None,1,Some,0,None,0,0,0,0,0,0,0,0,0,0,0,0,0,0,0,?,?,0,0,0,0,0,0,0,?
Young,Few,Normal,Normal,0,None,None,?,?,?,?,?,?,?,?,?,?,?,?,?,?,?,?,?,?,0,?,?,0,0,0,0,0,0,0,?
Young,Few,Normal,Normal,0,None,None,1,Some,0,None,0,0,0,0,0,0,0,0,0,0,0,0,0,0,0,?,?,0,0,0,0,0,0,0,?
Young,Few,Normal,Normal,0,None,None,0,None,0,None,0,0,0,0,0,0,0,0,0,0,0,0,0,0,0,?,?,0,0,0,0,0,0,0,?
Young,Few,Normal,Normal,0,None,None,1,Some,0,None,0,0,0,0,0,0,0,0,0,0,0,0,0,0,0,?,?,0,0,0,0,0,0,0,?
Young,Normal,Normal,Normal,0,None,None,?,?,?,?,?,?,?,?,?,?,?,?,?,?,?,?,?,?,0,?,?,0,0,0,0,0,0,0,?
Young,?,Normal,?,0,None,None,?,?,?,?,?,?,?,?,?,?,?,?,?,?,?,?,?,?,0,?,?,0,0,0,0,0,0,0,?
Young,Normal,Early,Normal,0,None,None,0,None,1,Normal,0,0,0,0,0,0,0,0,0,0,0,0,0,0,0,?,?,0,0,0,0,0,0,0,?
Young,Few,Normal,Normal,0,None,None,1,Normal,0,None,0,0,0,0,0,0,0,0,0,0,0,0,0,0,0,?,?,0,0,0,0,0,0,0,?
Young,Normal,Normal,Normal,0,None,None,0,None,0,None,0,0,0,0,0,0,0,0,0,0,0,0,0,0,0,?,?,0,0,0,0,0,1,0,?
Young,Normal,Normal,Normal,0,None,None,1,Some,0,None,0,0,0,0,0,0,0,0,0,0,0,0,0,0,0,?,?,0,0,0,0,0,0,0,?
Young,Few,Normal,Normal,0,None,None,0,None,0,None,0,0,0,0,0,0,0,0,0,0,0,0,0,0,0,?,?,0,0,0,0,0,0,0,?
Young,Few,Normal,Normal,0,None,None,0,None,0,None,0,0,0,0,0,0,0,0,0,0,0,0,0,0,0,?,?,0,0,0,0,0,0,0,?
Young,Few,Normal,Normal,?,?,?,?,?,?,?,?,?,?,?,?,?,?,?,?,?,?,?,?,?,0,?,?,0,0,0,0,0,0,0,?
Young,Few,Normal,Normal,0,None,None,0,None,0,None,0,0,0,0,0,0,0,0,0,0,0,0,0,0,0,?,?,0,0,0,0,0,0,0,?
Young,Normal,Early,Normal,0,None,None,?,?,?,?,?,?,?,?,?,?,?,?,?,?,?,?,?,?,0,?,?,0,0,0,0,0,0,0,?
Young,Few,Normal,Normal,0,None,None,1,Normal,0,None,0,0,0,0,0,0,0,0,0,0,0,0,0,0,0,?,?,0,0,0,0,0,0,0,?
Young,Normal,Normal,Normal,0,None,None,1,Some,0,None,0,0,0,0,0,0,0,0,0,0,0,0,0,0,0,?,?,0,0,0,0,0,0,0,?
Young,Few,Normal,Normal,0,None,None,?,?,?,?,?,?,?,?,?,?,?,?,?,?,?,?,?,?,0,?,?,0,0,0,0,0,0,0,?
Young,Few,Late,Normal,0,None,None,1,Some,0,None,0,0,0,0,0,0,0,0,0,0,0,0,0,0,0,?,?,0,0,0,0,0,0,0,?
Young,Normal,Early,Normal,0,None,None,0,None,0,None,0,0,0,0,0,0,0,0,0,0,0,0,0,0,0,?,?,0,0,0,0,0,0,0,?
Young,Normal,Normal,Normal,0,None,None,1,Some,0,None,0,0,0,0,0,0,0,0,0,0,0,0,0,0,0,?,?,0,0,0,0,0,0,0,?
Young,Few,Early,Normal,1,?,?,1,Normal,0,None,0,0,0,0,0,0,0,0,0,0,0,0,0,0,0,?,?,0,0,0,0,0,0,0,?
Young,Few,Normal,Normal,1,Few,Some,1,Some,0,None,0,0,0,0,0,0,0,0,0,0,0,0,0,0,0,?,?,0,0,0,0,0,0,0,?
Young,Few,Early,Normal,1,Normal,?,1,Normal,0,None,0,0,0,0,0,0,0,0,0,0,0,0,0,0,0,?,?,0,0,0,0,0,0,0,?
Young,Few,Normal,Normal,0,None,None,1,Some,0,None,0,0,0,0,0,0,0,0,0,0,0,0,0,0,0,?,?,0,0,0,0,0,0,0,?
Young,Few,Normal,Normal,0,None,None,1,?,0,None,0,0,0,0,0,0,0,0,0,0,0,0,0,0,0,?,?,0,0,0,0,0,0,0,?
Young,Few,Normal,Normal,0,None,None,0,None,0,None,0,0,0,0,0,0,0,0,0,0,0,0,0,0,0,?,?,0,0,0,0,0,0,0,?
Young,Few,Normal,Normal,0,None,None,0,None,0,None,0,0,0,0,0,0,0,0,0,0,0,0,0,0,0,?,?,0,0,0,0,0,0,0,?
Young,Few,Normal,Normal,0,None,None,1,Normal,0,None,1,2,1,0,0,1,0,0,0,0,0,0,0,0,1,3,3,0,0,0,0,0,0,0,?
Young,Normal,Normal,Normal,0,None,None,0,None,0,None,0,0,0,0,0,0,0,0,0,0,0,0,0,0,0,?,?,0,0,0,0,0,0,0,?
Young,Few,Normal,Normal,?,?,?,0,None,0,None,0,0,0,0,0,0,0,0,0,0,0,0,0,0,0,?,?,0,0,0,0,0,0,0,?
Young,Few,Normal,Normal,0,None,None,1,?,0,None,0,0,0,0,0,0,0,0,0,0,0,0,0,0,0,?,?,0,0,0,0,0,0,0,?
Young,Normal,Normal,Normal,0,None,None,?,?,?,?,?,?,?,?,?,?,?,?,?,?,?,?,?,?,0,?,?,0,0,0,0,0,0,0,?
Young,Few,Early,Normal,0,None,None,1,Normal,0,None,0,0,0,0,0,0,0,0,0,0,0,0,0,0,0,?,?,0,0,0,0,0,0,0,?
Young,?,Normal,Normal,0,None,None,0,None,0,None,0,0,0,0,0,0,0,0,0,0,0,0,0,0,0,?,?,0,0,0,0,0,0,0,?
Young,Normal,Normal,Normal,1,Few,?,1,Normal,0,None,0,0,0,0,0,0,0,0,0,0,0,0,0,0,0,?,?,0,0,0,0,0,0,0,?
Young,Normal,Early,Normal,0,None,None,0,None,0,None,0,0,0,0,0,0,0,0,0,0,0,0,0,0,0,?,?,0,0,0,0,0,0,0,?
Young,?,Normal,Normal,0,None,None,?,?,?,?,?,?,?,?,?,?,?,?,?,?,?,?,?,?,0,?,?,0,0,0,0,0,0,0,?
Young,Normal,Normal,Normal,1,?,?,0,None,0,None,0,0,0,0,0,0,0,0,0,0,0,0,0,0,0,?,?,0,0,0,0,0,0,0,?
Young,Normal,Normal,Normal,0,None,None,1,?,0,None,0,0,0,0,0,0,0,0,0,0,0,0,0,0,0,?,?,0,0,0,0,0,0,0,?
Young,Few,Normal,Normal,0,None,None,?,?,?,?,?,?,?,?,?,?,?,?,?,?,?,?,?,?,0,?,?,0,0,0,0,0,0,0,?
Young,Few,Normal,Normal,0,None,None,1,Normal,0,None,0,0,0,0,0,0,0,0,0,0,0,0,0,0,0,?,?,0,0,0,0,0,0,0,?
Young,Normal,Normal,Normal,0,None,None,?,?,0,None,1,2,1,0,0,1,0,0,0,0,0,0,0,0,1,2,2,0,0,0,0,0,0,0,?
Young,Few,Normal,Normal,0,None,None,1,?,0,None,0,0,0,0,0,0,0,0,0,0,0,0,0,0,0,?,?,0,0,0,0,0,0,0,?
Young,Normal,Normal,Many,0,None,None,1,Normal,0,None,0,0,0,0,0,0,0,0,0,0,0,0,0,0,0,?,?,0,0,0,0,0,0,0,?
Young,Few,Late,Normal,0,None,None,0,None,?,?,0,0,0,0,0,0,0,0,0,0,0,0,0,0,0,?,?,0,0,0,0,0,0,0,?
Young,Normal,Early,Normal,0,None,None,1,Some,0,None,0,0,0,0,0,0,0,0,0,0,0,0,0,0,0,?,?,0,0,0,0,0,0,0,?
Young,Few,Normal,Normal,0,None,None,1,Some,0,None,0,0,0,0,0,0,0,0,0,0,0,0,0,0,0,?,?,0,0,0,0,1,1,0,?
Young,Normal,Normal,Normal,0,None,None,1,Normal,0,None,0,0,0,0,0,0,0,0,0,0,0,0,0,0,0,?,?,0,0,0,0,0,0,0,?
Young,Few,Normal,Normal,0,None,None,?,?,?,?,?,?,?,?,?,?,?,?,?,?,?,?,?,?,0,?,?,0,0,0,0,0,0,0,?
Young,Few,Normal,Normal,0,None,None,1,?,0,None,0,0,0,0,0,0,0,0,0,0,0,0,0,0,0,?,?,0,0,0,0,0,0,0,?
Young,Few,Normal,Normal,0,None,None,1,Normal,0,None,0,0,0,0,0,0,0,0,0,0,0,0,0,0,0,?,?,0,0,0,0,0,0,0,?
Young,Few,Normal,Normal,0,None,None,?,?,?,?,?,?,?,?,?,?,?,?,?,?,?,?,?,?,0,?,?,0,0,0,0,0,0,0,?
Young,Normal,Early,Normal,0,None,None,1,Some,0,None,0,0,0,0,0,0,0,0,0,0,0,0,0,0,0,?,?,0,0,0,0,1,1,1,?
Young,Few,Normal,Normal,0,None,None,?,?,?,?,?,?,?,?,?,?,?,?,?,?,?,?,?,?,0,?,?,0,0,0,0,0,0,0,?
Young,Few,Normal,Normal,0,None,None,1,Some,0,None,0,0,0,0,0,0,0,0,0,0,0,0,0,0,0,?,?,0,0,0,0,0,0,0,?
Young,Few,Normal,Normal,0,None,None,1,Some,0,None,?,?,?,?,?,?,?,?,?,?,?,?,?,?,0,?,?,0,0,0,0,0,0,0,?
Midlife,?,Normal,Many,0,None,None,1,Some,0,None,0,0,0,0,0,0,0,0,0,0,0,0,0,0,0,?,?,0,0,0,0,0,0,0,?
Young,Few,Normal,Normal,0,None,None,1,?,0,None,1,1,0,0,0,0,0,0,1,0,0,0,0,0,1,1,1,0,0,0,0,0,0,0,?
Young,Few,Normal,Normal,0,None,None,1,?,0,None,0,0,0,0,0,0,0,0,0,0,0,0,0,0,0,?,?,0,0,0,0,0,0,0,?
Young,Few,Early,Normal,0,None,None,0,None,0,None,0,0,0,0,0,0,0,0,0,0,0,0,0,0,0,?,?,0,0,0,0,0,0,0,?
Young,Normal,Early,Normal,0,None,None,?,?,?,?,?,?,?,?,?,?,?,?,?,?,?,?,?,?,0,?,?,0,0,0,0,0,0,0,?
Young,Few,Normal,Many,0,None,None,1,?,0,None,0,0,0,0,0,0,0,0,0,0,0,0,0,0,0,?,?,0,0,0,0,0,0,0,?
Young,Few,Early,Normal,0,None,None,?,?,?,?,?,?,?,?,?,?,?,?,?,?,?,?,?,?,0,?,?,0,0,0,0,0,0,0,?
Midlife,Few,Early,Many,0,None,None,1,?,1,Normal,0,0,0,0,0,0,0,0,0,0,0,0,0,0,0,?,?,0,0,0,0,0,0,0,?
Midlife,Few,Normal,Many,0,None,None,1,Some,0,None,0,0,0,0,0,0,0,0,0,0,0,0,0,0,0,?,?,0,0,0,0,0,0,0,?
Young,Normal,Normal,Many,0,None,None,1,Normal,0,None,0,0,0,0,0,0,0,0,0,0,0,0,0,0,0,?,?,0,0,0,0,0,0,0,?
Young,Few,Normal,Normal,0,None,None,1,Some,0,None,0,0,0,0,0,0,0,0,0,0,0,0,0,0,0,?,?,0,0,0,0,0,0,0,?
Midlife,Few,Normal,Many,0,None,None,0,None,0,None,0,0,0,0,0,0,0,0,0,0,0,0,0,0,0,?,?,1,0,1,1,0,1,1,?
Young,Few,Normal,Normal,0,None,None,1,Normal,0,None,0,0,0,0,0,0,0,0,0,0,0,0,0,0,0,?,?,0,0,0,0,0,0,0,?
Midlife,Few,Normal,Many,1,Many,Normal,1,Normal,0,None,0,0,0,0,0,0,0,0,0,0,0,0,0,0,0,?,?,0,0,0,0,0,0,0,?
Young,Normal,Early,Normal,1,Few,Some,?,?,?,?,?,?,?,?,?,?,?,?,?,?,?,?,?,?,0,?,?,0,0,0,0,0,0,0,?
Young,Few,Normal,Normal,0,None,None,1,?,0,None,0,0,0,0,0,0,0,0,0,0,0,0,0,0,0,?,?,0,0,0,0,0,0,0,?
Young,Normal,Normal,Normal,0,None,None,1,Some,0,None,0,0,0,0,0,0,0,0,0,0,0,0,0,0,0,?,?,0,0,0,0,0,0,0,?
Young,Few,Normal,Normal,0,None,None,?,?,?,?,?,?,?,?,?,?,?,?,?,?,?,?,?,?,0,?,?,0,0,0,0,0,0,0,?
Young,Few,Normal,Normal,0,None,None,1,?,0,None,0,0,0,0,0,0,0,0,0,0,0,0,0,0,0,?,?,0,0,0,0,0,0,0,?
Young,Few,Early,Normal,1,Few,?,?,?,?,?,?,?,?,?,?,?,?,?,?,?,?,?,?,?,0,?,?,0,0,0,0,0,0,0,?
Young,Few,Normal,Normal,0,None,None,0,None,0,None,0,0,0,0,0,0,0,0,0,0,0,0,0,0,0,?,?,0,0,0,0,0,0,0,?
Young,Normal,Normal,Normal,0,None,None,1,?,0,None,?,?,?,?,?,?,?,?,?,?,?,?,?,?,0,?,?,0,0,0,0,0,1,0,?
Young,Normal,Early,Normal,0,None,None,?,?,?,?,?,?,?,?,?,?,?,?,?,?,?,?,?,?,0,?,?,0,0,0,0,0,0,0,?
Young,Few,Early,Normal,0,None,None,1,?,0,None,0,0,0,0,0,0,0,0,0,0,0,0,0,0,0,?,?,0,0,0,0,0,0,0,?
Young,Few,Normal,Normal,0,None,None,0,None,0,None,0,0,0,0,0,0,0,0,0,0,0,0,0,0,0,?,?,0,0,0,0,0,0,0,?
Young,Normal,Normal,Normal,0,None,None,1,Some,0,None,0,0,0,0,0,0,0,0,0,0,0,0,0,0,0,?,?,0,0,0,0,0,0,0,?
Young,Few,Normal,Normal,0,None,None,?,?,?,?,?,?,?,?,?,?,?,?,?,?,?,?,?,?,0,?,?,0,0,0,0,0,0,0,?
Young,Normal,Early,Normal,0,None,None,1,Normal,0,None,0,0,0,0,0,0,0,0,0,0,0,0,0,0,0,?,?,0,0,0,0,0,0,0,?
Young,Normal,Early,Normal,0,None,None,0,None,0,None,0,0,0,0,0,0,0,0,0,0,0,0,0,0,0,?,?,0,0,0,0,0,0,0,?
Young,Few,Early,Normal,0,None,None,?,?,?,?,?,?,?,?,?,?,?,?,?,?,?,?,?,?,0,?,?,0,0,0,0,0,0,0,?
Midlife,Few,Normal,Many,0,None,None,0,None,0,None,0,0,0,0,0,0,0,0,0,0,0,0,0,0,0,?,?,0,0,0,0,0,1,1,?
Young,Normal,Early,Many,0,None,None,0,None,0,None,1,2,1,0,0,1,0,0,0,0,0,0,0,0,1,6,6,0,0,0,0,0,0,0,?
Young,Few,Normal,Normal,0,None,None,0,None,0,None,0,0,0,0,0,0,0,0,0,0,0,0,0,0,0,?,?,0,0,0,0,0,0,0,?
Young,Few,Early,Normal,0,None,None,?,?,?,?,0,0,0,0,0,0,0,0,0,0,0,0,0,0,0,?,?,0,0,0,0,0,0,0,?
Young,Few,Normal,Normal,0,None,None,1,Some,0,None,0,0,0,0,0,0,0,0,0,0,0,0,0,0,0,?,?,0,0,0,0,0,0,0,?
Midlife,Few,Late,Many,0,None,None,1,Normal,0,None,0,0,0,0,0,0,0,0,0,0,0,0,0,0,0,?,?,0,0,0,0,0,0,0,?
Young,Few,Normal,Normal,0,None,None,1,Some,0,None,0,0,0,0,0,0,0,0,0,0,0,0,0,0,0,?,?,0,0,0,0,0,0,0,?
Young,Normal,Normal,Normal,0,None,None,1,?,0,None,0,0,0,0,0,0,0,0,0,0,0,0,0,0,0,?,?,0,0,0,0,0,0,0,?
Young,Few,Early,Normal,0,None,None,1,?,0,None,0,0,0,0,0,0,0,0,0,0,0,0,0,0,0,?,?,0,0,0,0,0,0,0,?
Young,Few,Early,Normal,0,None,None,1,?,0,None,0,0,0,0,0,0,0,0,0,0,0,0,0,0,0,?,?,0,0,0,0,0,0,0,?
Young,Normal,Normal,Normal,0,None,None,0,None,0,None,0,0,0,0,0,0,0,0,0,0,0,0,0,0,0,?,?,0,0,0,0,0,0,0,?
Young,Few,Normal,?,0,None,None,1,?,0,None,0,0,0,0,0,0,0,0,0,0,0,0,0,0,0,?,?,0,0,0,0,0,0,0,?
Young,Normal,Early,Normal,0,None,None,1,?,0,None,0,0,0,0,0,0,0,0,0,0,0,0,0,0,0,?,?,0,0,0,0,0,0,0,?
Young,Few,Normal,Normal,0,None,None,0,None,0,None,0,0,0,0,0,0,0,0,0,0,0,0,0,0,0,?,?,0,0,0,0,0,0,0,?
Young,?,Normal,Normal,0,None,None,1,Some,0,None,0,0,0,0,0,0,0,0,0,0,0,0,0,0,0,?,?,0,0,0,0,0,0,0,?
Young,Few,Normal,Normal,0,None,None,0,None,0,None,0,0,0,0,0,0,0,0,0,0,0,0,0,0,0,?,?,0,0,0,0,0,0,0,?
Young,Normal,Early,Normal,0,None,None,0,None,0,None,0,0,0,0,0,0,0,0,0,0,0,0,0,0,0,?,?,0,0,0,0,0,1,1,?
Young,Normal,Normal,Normal,1,Normal,?,1,Some,0,None,0,0,0,0,0,0,0,0,0,0,0,0,0,0,0,?,?,0,0,0,0,0,0,0,?
Young,Normal,Early,Normal,1,?,?,1,?,0,None,0,0,0,0,0,0,0,0,0,0,0,0,0,0,0,?,?,0,0,1,0,0,0,0,?
Young,Few,Normal,Normal,0,None,None,1,?,0,None,0,0,0,0,0,0,0,0,0,0,0,0,0,0,0,?,?,0,0,0,0,0,0,0,?
Young,Normal,Early,Normal,1,Few,Some,0,None,0,None,1,1,0,0,0,0,1,0,0,0,0,0,0,0,1,3,3,0,0,0,0,0,0,0,?
Young,Few,Normal,Normal,0,None,None,1,Some,0,None,0,0,0,0,0,0,0,0,0,0,0,0,0,0,0,?,?,0,0,0,0,0,0,0,?
Midlife,Normal,Normal,Normal,0,None,None,1,Normal,1,Normal,1,2,1,0,0,1,0,0,0,0,0,0,0,0,1,22,22,0,0,0,0,0,0,0,?
Young,Few,Early,Many,1,Few,Some,1,?,0,None,0,0,0,0,0,0,0,0,0,0,0,0,0,0,0,?,?,0,0,0,0,0,0,0,?
Young,Few,Early,Normal,0,None,None,0,None,0,None,0,0,0,0,0,0,0,0,0,0,0,0,0,0,0,?,?,0,0,0,0,0,0,0,?
Young,Few,Early,Normal,0,None,None,0,None,0,None,0,0,0,0,0,0,0,0,0,0,0,0,0,0,0,?,?,0,0,0,0,0,0,0,?
Young,Normal,Early,Normal,1,Few,?,1,?,0,None,0,0,0,0,0,0,0,0,0,0,0,0,0,0,0,?,?,0,0,0,0,0,0,0,?
Young,Normal,Early,Normal,0,None,None,?,?,?,?,?,?,?,?,?,?,?,?,?,?,?,?,?,?,0,?,?,0,0,0,0,0,0,0,?
Young,Normal,Normal,Normal,0,None,None,0,None,0,None,0,0,0,0,0,0,0,0,0,0,0,0,0,0,0,?,?,0,0,0,0,0,0,0,?
Young,Few,Early,Normal,0,None,None,1,?,0,None,0,0,0,0,0,0,0,0,0,0,0,0,0,0,0,?,?,0,0,0,0,1,1,0,?
Young,Few,Normal,Normal,0,None,None,0,None,0,None,1,2,1,0,0,1,0,0,0,0,0,0,0,0,1,2,2,0,0,0,0,0,0,0,?
Young,Normal,Early,Normal,0,None,None,1,Some,0,None,0,0,0,0,0,0,0,0,0,0,0,0,0,0,0,?,?,0,0,0,0,1,1,0,?
Young,Few,Early,Normal,1,Normal,Some,1,Some,0,None,0,0,0,0,0,0,0,0,0,0,0,0,0,0,0,?,?,0,0,0,0,0,0,1,?
Young,Few,Normal,Normal,0,None,None,0,None,0,None,0,0,0,0,0,0,0,0,0,0,0,0,0,0,0,?,?,0,0,0,0,0,0,0,?
Young,Normal,Early,Normal,1,Few,?,0,None,0,None,1,1,0,0,0,0,1,0,0,0,0,0,0,0,1,1,1,0,0,0,0,0,0,0,?
Young,Few,Normal,Normal,0,None,None,0,None,0,None,0,0,0,0,0,0,0,0,0,0,0,0,0,0,0,?,?,0,0,0,0,0,0,0,?
Young,Few,Normal,Normal,0,None,None,1,?,0,None,0,0,0,0,0,0,0,0,0,0,0,0,0,0,0,?,?,0,0,0,0,0,0,0,?
Young,?,Early,Normal,0,None,None,?,?,?,?,?,?,?,?,?,?,?,?,?,?,?,?,?,?,0,?,?,0,0,0,0,0,0,0,?
Young,Few,Normal,Normal,0,None,None,0,None,0,None,0,0,0,0,0,0,0,0,0,0,0,0,0,0,0,?,?,0,0,0,0,0,0,0,?
Young,Normal,Early,Normal,0,None,None,0,None,0,None,0,0,0,0,0,0,0,0,0,0,0,0,0,0,0,?,?,0,0,0,0,0,0,0,?
Young,Few,Normal,Normal,1,Normal,Normal,0,None,0,None,1,2,0,0,0,0,0,0,0,0,0,1,1,0,1,21,21,0,0,0,0,0,0,0,?
Young,Few,Normal,Normal,0,None,None,0,None,0,None,0,0,0,0,0,0,0,0,0,0,0,0,0,0,0,?,?,0,0,0,0,0,0,0,?
Young,Normal,Early,Normal,1,Few,?,?,?,?,?,0,0,0,0,0,0,0,0,0,0,0,0,0,0,0,?,?,0,0,0,0,0,0,0,?
Young,Few,Normal,Normal,0,None,None,1,Some,0,None,1,2,1,0,0,1,0,0,0,0,0,0,0,0,1,1,1,0,0,0,0,0,0,0,?
Young,?,Normal,Normal,0,None,None,?,?,?,?,?,?,?,?,?,?,?,?,?,?,?,?,?,?,0,?,?,0,0,0,0,0,0,0,?
Young,Few,Early,Normal,0,None,None,1,?,0,None,0,0,0,0,0,0,0,0,0,0,0,0,0,0,0,?,?,0,0,0,0,0,0,0,?
Young,Few,Early,Normal,0,None,None,1,?,0,None,0,0,0,0,0,0,0,0,0,0,0,0,0,0,0,?,?,0,0,0,0,0,0,0,?
Young,Few,Normal,Normal,0,None,None,1,Normal,0,None,0,0,0,0,0,0,0,0,0,0,0,0,0,0,0,?,?,0,0,0,0,0,0,0,?
Young,Normal,Early,Normal,0,None,None,1,?,0,None,0,0,0,0,0,0,0,0,0,0,0,0,0,0,0,?,?,0,0,0,0,0,0,0,?
Young,Normal,Early,Normal,0,None,None,0,None,0,None,0,0,0,0,0,0,0,0,0,0,0,0,0,0,0,?,?,0,0,0,0,0,0,0,?
Young,Few,Early,Normal,0,None,None,0,None,0,None,0,0,0,0,0,0,0,0,0,0,0,0,0,0,0,?,?,0,0,0,0,0,0,0,?
Young,Few,Normal,Normal,0,None,None,?,?,?,?,?,?,?,?,?,?,?,?,?,?,?,?,?,?,0,?,?,0,0,0,0,0,0,0,?
Young,Few,Normal,Normal,0,None,None,0,None,0,None,0,0,0,0,0,0,0,0,0,0,0,0,0,0,0,?,?,0,0,0,0,0,0,0,?
Young,Few,Early,Normal,0,None,None,0,None,0,None,1,4,1,0,0,1,1,0,0,0,0,1,0,0,3,3,1,0,0,0,0,1,1,0,?
Young,Few,Early,Normal,0,None,None,?,?,?,?,?,?,?,?,?,?,?,?,?,?,?,?,?,?,0,?,?,0,0,0,0,0,0,0,?
Young,Few,Early,Normal,0,None,None,0,None,0,None,0,0,0,0,0,0,0,0,0,0,0,0,0,0,0,?,?,0,0,0,0,0,0,0,?
Young,Few,Early,Normal,0,None,None,1,?,0,None,0,0,0,0,0,0,0,0,0,0,0,0,0,0,0,?,?,0,0,0,0,0,0,0,?
Young,Few,Normal,Normal,0,None,None,0,None,0,None,0,0,0,0,0,0,0,0,0,0,0,0,0,0,0,?,?,0,0,0,0,1,1,1,?
Young,Few,Early,Normal,0,None,None,?,?,?,?,?,?,?,?,?,?,?,?,?,?,?,?,?,?,0,?,?,0,0,0,0,0,0,0,?
Midlife,Normal,Late,Many,0,None,None,0,None,0,None,0,0,0,0,0,0,0,0,0,0,0,0,0,0,0,?,?,0,0,0,0,0,0,0,?
Young,Normal,Early,Normal,1,Few,?,0,None,0,None,0,0,0,0,0,0,0,0,0,0,0,0,0,0,0,?,?,0,0,0,0,0,0,0,?
Young,Normal,Early,Normal,0,None,None,0,None,0,None,0,0,0,0,0,0,0,0,0,0,0,0,0,0,0,?,?,0,0,0,0,0,0,0,?
Young,Few,Early,Normal,0,None,None,0,None,0,None,0,0,0,0,0,0,0,0,0,0,0,0,0,0,0,?,?,0,0,0,0,0,0,0,?
Young,?,Normal,Normal,0,None,None,?,?,?,?,?,?,?,?,?,?,?,?,?,?,?,?,?,?,0,?,?,0,0,0,0,0,0,0,?
Young,Few,Normal,Normal,0,None,None,0,None,0,None,1,2,1,0,0,1,0,0,0,0,0,0,0,0,1,2,2,0,0,0,0,0,0,0,?
Young,Normal,Early,Normal,0,None,None,?,?,?,?,?,?,?,?,?,?,?,?,?,?,?,?,?,?,0,?,?,0,0,0,0,0,0,0,?
Young,Few,Normal,Normal,0,None,None,1,?,0,None,0,0,0,0,0,0,0,0,0,0,0,0,0,0,0,?,?,0,0,0,0,0,0,0,?
Young,Normal,Early,?,0,None,None,1,?,?,?,0,0,0,0,0,0,0,0,0,0,0,0,0,0,0,?,?,0,0,0,0,1,1,0,?
Young,Few,Early,Normal,1,?,?,1,?,0,None,0,0,0,0,0,0,0,0,0,0,0,0,0,0,0,?,?,0,0,0,0,1,0,0,?
Young,Few,Early,Normal,0,None,None,0,None,0,None,0,0,0,0,0,0,0,0,0,0,0,0,0,0,0,?,?,0,0,0,0,0,0,0,?
Young,Few,Normal,Normal,0,None,None,0,None,0,None,1,2,1,0,0,1,0,0,0,0,0,0,0,0,1,4,4,0,0,0,0,0,0,1,?
Young,Few,Early,Normal,0,None,None,0,None,0,None,0,0,0,0,0,0,0,0,0,0,0,0,0,0,0,?,?,0,0,0,0,0,0,0,?
Young,Many,Normal,Normal,1,Normal,Some,1,Some,0,None,1,2,1,0,0,1,0,0,0,0,0,0,0,0,1,3,3,0,0,0,0,0,0,0,?
Young,Few,Normal,Normal,0,None,None,1,Normal,0,None,0,0,0,0,0,0,0,0,0,0,0,0,0,0,0,?,?,0,0,0,0,0,0,0,?
Young,Few,Early,Normal,1,Few,?,0,None,0,None,0,0,0,0,0,0,0,0,0,0,0,0,0,0,0,?,?,0,0,0,0,0,0,0,?
Young,Few,Early,Normal,0,None,None,1,?,0,None,0,0,0,0,0,0,0,0,0,0,0,0,0,0,0,?,?,0,0,0,0,0,0,0,?
Young,Normal,Early,Normal,0,None,None,1,?,0,None,0,0,0,0,0,0,0,0,0,0,0,0,0,0,0,?,?,0,0,0,0,0,0,0,?
Young,Few,Early,Normal,0,None,None,0,None,0,None,0,0,0,0,0,0,0,0,0,0,0,0,0,0,0,?,?,0,0,0,0,0,0,0,?
Midlife,Normal,Normal,Normal,0,None,None,0,None,1,Normal,0,0,0,0,0,0,0,0,0,0,0,0,0,0,0,?,?,1,0,0,1,0,0,0,?
Young,Few,Early,Normal,0,None,None,1,Some,0,None,0,0,0,0,0,0,0,0,0,0,0,0,0,0,0,?,?,0,0,0,0,0,1,0,?
Young,Normal,Normal,Normal,0,None,None,1,?,0,None,0,0,0,0,0,0,0,0,0,0,0,0,0,0,0,?,?,0,0,0,0,0,0,1,?
Young,Few,Early,Normal,0,None,None,0,None,0,None,0,0,0,0,0,0,0,0,0,0,0,0,0,0,0,?,?,0,0,0,0,0,0,0,?
Young,Normal,Early,Normal,0,None,None,?,?,?,?,?,?,?,?,?,?,?,?,?,?,?,?,?,?,0,?,?,0,0,0,0,0,0,1,?
Young,Few,Early,Normal,0,None,None,0,None,0,None,0,0,0,0,0,0,0,0,0,0,0,0,0,0,0,?,?,0,0,0,0,0,0,0,?
Young,Normal,Normal,Normal,0,None,None,0,None,0,None,0,0,0,0,0,0,0,0,0,0,0,0,0,0,0,?,?,0,0,0,0,0,0,0,?
Young,Normal,Normal,Normal,0,None,None,1,Some,0,None,0,0,0,0,0,0,0,0,0,0,0,0,0,0,0,?,?,0,0,0,0,0,0,1,?
Young,Few,Early,Normal,0,None,None,0,None,0,None,0,0,0,0,0,0,0,0,0,0,0,0,0,0,0,?,?,0,0,0,0,0,0,0,?
Young,Few,Early,Normal,0,None,None,0,None,0,None,0,0,0,0,0,0,0,0,0,0,0,0,0,0,0,?,?,0,0,0,0,0,0,0,?
Young,Few,Early,Normal,0,None,None,0,None,0,None,0,0,0,0,0,0,0,0,0,0,0,0,0,0,0,?,?,0,0,0,0,0,0,0,?
Young,Few,Early,Normal,0,None,None,?,?,?,?,?,?,?,?,?,?,?,?,?,?,?,?,?,?,0,?,?,0,0,0,0,0,0,0,?
Young,Few,Normal,Normal,0,None,None,1,?,0,None,0,0,0,0,0,0,0,0,0,0,0,0,0,0,0,?,?,0,0,0,0,0,0,0,?
Young,Few,Early,Normal,0,None,None,?,?,?,?,?,?,?,?,?,?,?,?,?,?,?,?,?,?,0,?,?,0,0,0,0,0,0,0,?
Young,Normal,Normal,Normal,1,Normal,Some,0,None,0,None,0,0,0,0,0,0,0,0,0,0,0,0,0,0,0,?,?,0,0,0,0,0,0,0,?
Young,Normal,Early,Normal,0,None,None,0,None,0,None,0,0,0,0,0,0,0,0,0,0,0,0,0,0,0,?,?,0,0,0,0,0,0,0,?
Young,Normal,Normal,Normal,0,None,None,1,?,0,None,1,1,0,0,0,0,1,0,0,0,0,0,0,0,1,1,1,0,0,0,0,0,0,0,?
Young,Few,Normal,Normal,0,None,None,1,Some,0,None,0,0,0,0,0,0,0,0,0,0,0,0,0,0,0,?,?,0,0,0,0,0,0,0,?
Young,Few,Early,Normal,0,None,None,1,?,0,None,0,0,0,0,0,0,0,0,0,0,0,0,0,0,0,?,?,0,0,0,0,0,0,0,?
Young,Few,Normal,Normal,?,?,?,0,None,0,None,0,0,0,0,0,0,0,0,0,0,0,0,0,0,0,?,?,0,0,0,0,0,0,0,?
Young,Few,Normal,Normal,0,None,None,?,?,?,?,?,?,?,?,?,?,?,?,?,?,?,?,?,?,0,?,?,0,0,0,0,0,0,0,?
Young,Few,Early,Normal,0,None,None,?,?,?,?,?,?,?,?,?,?,?,?,?,?,?,?,?,?,0,?,?,0,0,0,0,0,0,0,?
Young,Few,Early,Normal,0,None,None,0,None,0,None,0,0,0,0,0,0,0,0,0,0,0,0,0,0,0,?,?,0,0,0,0,0,0,0,?
Young,Few,Normal,Normal,0,None,None,0,None,0,None,1,1,0,0,0,0,1,0,0,0,0,0,0,0,0,?,?,0,0,0,0,0,0,0,?
Young,Few,Early,Normal,0,None,None,0,None,0,None,0,0,0,0,0,0,0,0,0,0,0,0,0,0,0,?,?,0,0,0,0,0,0,0,?
Young,Normal,Early,Normal,1,?,?,?,?,?,?,?,?,?,?,?,?,?,?,?,?,?,?,?,?,0,?,?,0,0,0,0,0,0,1,?
Young,Few,Early,Normal,0,None,None,0,None,0,None,0,0,0,0,0,0,0,0,0,0,0,0,0,0,0,?,?,0,0,0,0,0,0,1,?
Young,Few,Early,Normal,0,None,None,0,None,0,None,0,0,0,0,0,0,0,0,0,0,0,0,0,0,0,?,?,0,0,0,0,0,0,0,?
Young,?,Early,Normal,0,None,None,?,?,?,?,?,?,?,?,?,?,?,?,?,?,?,?,?,?,0,?,?,0,0,0,0,0,0,0,?
Young,Normal,Early,Normal,0,None,None,0,None,0,None,0,0,0,0,0,0,0,0,0,0,0,0,0,0,0,?,?,0,0,0,0,0,0,0,?
Young,Normal,Early,Normal,0,None,None,0,None,0,None,0,0,0,0,0,0,0,0,0,0,0,0,0,0,0,?,?,0,0,0,0,0,0,0,?
Young,Few,Early,Normal,0,None,None,0,None,0,None,0,0,0,0,0,0,0,0,0,0,0,0,0,0,0,?,?,0,0,0,0,0,0,0,?
Young,Few,Early,Normal,0,None,None,1,?,0,None,0,0,0,0,0,0,0,0,0,0,0,0,0,0,0,?,?,0,0,0,0,0,1,0,?
Young,Few,Early,Normal,0,None,None,0,None,0,None,0,0,0,0,0,0,0,0,0,0,0,0,0,0,0,?,?,0,0,0,0,0,0,0,?
Young,Few,Early,Normal,0,None,None,0,None,0,None,0,0,0,0,0,0,0,0,0,0,0,0,0,0,0,?,?,0,0,0,0,0,0,0,?
Young,Many,Early,Normal,1,Normal,Some,0,None,0,None,0,0,0,0,0,0,0,0,0,0,0,0,0,0,0,?,?,0,0,0,0,0,0,0,?
Young,Few,Early,Normal,0,None,None,1,Some,0,None,1,1,0,0,0,0,1,0,0,0,0,0,0,0,1,1,1,0,0,0,0,0,0,0,?
Young,Few,Early,Normal,0,None,None,0,None,0,None,0,0,0,0,0,0,0,0,0,0,0,0,0,0,0,?,?,0,0,0,0,0,0,0,?
Midlife,Normal,Normal,Many,0,None,None,1,Some,0,None,0,0,0,0,0,0,0,0,0,0,0,0,0,0,0,?,?,0,0,0,0,0,0,0,?
Young,Few,Normal,Normal,0,None,None,1,Some,0,None,0,0,0,0,0,0,0,0,0,0,0,0,0,0,0,?,?,0,0,0,0,0,0,0,?
Midlife,Few,Normal,Normal,0,None,None,1,Some,0,None,0,0,0,0,0,0,0,0,0,0,0,0,0,0,0,?,?,0,0,0,0,1,1,0,?
Midlife,Normal,Normal,Many,0,None,None,1,Normal,0,None,0,0,0,0,0,0,0,0,0,0,0,0,0,0,0,?,?,0,0,0,0,0,0,0,?
Midlife,Normal,Normal,Many,0,None,None,0,None,0,None,0,0,0,0,0,0,0,0,0,0,0,0,0,0,0,?,?,0,0,0,0,0,0,0,?
Young,Normal,Early,Normal,0,None,None,1,Some,0,None,0,0,0,0,0,0,0,0,0,0,0,0,0,0,0,?,?,0,0,0,0,0,0,0,?
Midlife,Few,Late,Normal,0,None,None,?,?,?,?,?,?,?,?,?,?,?,?,?,?,?,?,?,?,0,?,?,0,0,0,0,0,0,0,?
Midlife,Few,Normal,Normal,0,None,None,0,None,0,None,0,0,0,0,0,0,0,0,0,0,0,0,0,0,0,?,?,0,0,0,0,0,0,0,?
Midlife,Normal,Normal,Normal,1,Normal,Normal,0,None,0,None,0,0,0,0,0,0,0,0,0,0,0,0,0,0,0,?,?,0,0,0,0,0,0,0,?
Midlife,Few,Late,Normal,0,None,None,1,?,0,None,0,0,0,0,0,0,0,0,0,0,0,0,0,0,0,?,?,0,0,0,0,0,0,0,?
Midlife,Normal,Early,Many,0,None,None,?,?,?,?,1,1,0,0,0,0,1,0,0,0,0,0,0,0,0,?,?,0,0,0,0,0,0,0,?
Midlife,?,Normal,Normal,0,None,None,0,None,0,None,0,0,0,0,0,0,0,0,0,0,0,0,0,0,0,?,?,0,0,0,0,0,0,0,?
Midlife,Few,Normal,Many,0,None,None,1,Normal,1,Some,0,0,0,0,0,0,0,0,0,0,0,0,0,0,0,?,?,0,0,0,0,0,1,0,?
Young,Normal,Normal,Many,0,None,None,1,Some,0,None,0,0,0,0,0,0,0,0,0,0,0,0,0,0,0,?,?,0,0,0,0,0,0,0,?
Young,Few,Normal,Normal,0,None,None,0,None,0,None,0,0,0,0,0,0,0,0,0,0,0,0,0,0,0,?,?,0,0,0,0,0,0,0,?
Young,Few,Normal,Normal,0,None,None,0,None,0,None,0,0,0,0,0,0,0,0,0,0,0,0,0,0,0,?,?,0,0,0,0,0,0,0,?
Midlife,Few,Normal,Normal,0,None,None,1,Some,0,None,0,0,0,0,0,0,0,0,0,0,0,0,0,0,0,?,?,0,0,0,0,0,0,0,?
Midlife,Few,Late,Normal,0,None,None,1,Some,0,None,0,0,0,0,0,0,0,0,0,0,0,0,0,0,0,?,?,0,0,0,0,0,0,0,?
Young,Few,Normal,Normal,0,None,None,1,Normal,0,None,0,0,0,0,0,0,0,0,0,0,0,0,0,0,0,?,?,0,0,0,0,0,0,0,?
Young,Normal,Early,Normal,0,None,None,?,?,?,?,?,?,?,?,?,?,?,?,?,?,?,?,?,?,0,?,?,0,0,0,0,0,0,0,?
Young,Few,Normal,Normal,0,None,None,?,?,?,?,1,2,1,0,0,1,0,0,0,0,0,0,0,0,1,3,3,0,0,0,0,0,0,0,?
Young,Few,Normal,Normal,0,None,None,1,Some,0,None,0,0,0,0,0,0,0,0,0,0,0,0,0,0,0,?,?,0,0,0,0,0,0,0,?
Midlife,Few,Late,Normal,0,None,None,1,Some,0,None,0,0,0,0,0,0,0,0,0,0,0,0,0,0,0,?,?,0,0,0,0,0,0,0,?
Young,Few,Early,Normal,0,None,None,0,None,0,None,0,0,0,0,0,0,0,0,0,0,0,0,0,0,0,?,?,0,0,0,0,0,0,1,?
Young,Few,Normal,Normal,0,None,None,1,?,0,None,0,0,0,0,0,0,0,0,0,0,0,0,0,0,0,?,?,0,0,0,0,0,0,0,?
Young,?,Normal,Normal,0,None,None,?,?,?,?,?,?,?,?,?,?,?,?,?,?,?,?,?,?,0,?,?,0,0,0,0,0,0,0,?
Midlife,Few,Normal,Normal,0,None,None,1,?,0,None,0,0,0,0,0,0,0,0,0,0,0,0,0,0,0,?,?,0,0,0,0,1,1,0,?
Young,Normal,Early,Normal,1,Normal,Some,1,Normal,0,None,0,0,0,0,0,0,0,0,0,0,0,0,0,0,0,?,?,0,0,0,0,0,0,0,?
Midlife,Few,Late,Normal,0,None,None,0,None,0,None,1,1,0,0,0,0,0,0,0,0,0,1,0,0,1,4,4,0,0,0,0,0,0,0,?
Midlife,Few,Normal,Many,0,None,None,1,?,0,None,0,0,0,0,0,0,0,0,0,0,0,0,0,0,0,?,?,0,0,0,0,0,0,0,?
Midlife,Normal,Late,Normal,0,None,None,1,?,0,None,0,0,0,0,0,0,0,0,0,0,0,0,0,0,0,?,?,0,0,0,0,0,0,0,?
Midlife,Few,Late,Normal,0,None,None,1,Normal,0,None,0,0,0,0,0,0,0,0,0,0,0,0,0,0,0,?,?,0,0,0,0,0,0,0,?
Young,Normal,Early,Normal,0,None,None,1,Normal,0,None,0,0,0,0,0,0,0,0,0,0,0,0,0,0,0,?,?,0,0,0,0,0,0,0,?
Midlife,Normal,Normal,Many,0,None,None,1,Normal,1,?,0,0,0,0,0,0,0,0,0,0,0,0,0,0,0,?,?,0,0,0,0,0,0,0,?
Young,Few,Normal,Normal,0,None,None,0,None,0,None,0,0,0,0,0,0,0,0,0,0,0,0,0,0,0,?,?,0,0,0,0,0,0,0,?
Young,Few,Normal,Normal,0,None,None,?,?,?,?,?,?,?,?,?,?,?,?,?,?,?,?,?,?,0,?,?,0,0,0,0,0,0,0,?
Midlife,Few,Late,Many,1,Many,Some,0,None,0,None,1,3,1,0,1,1,0,0,0,0,0,0,0,0,1,7,7,0,0,0,0,0,0,0,?
Young,Few,Early,Normal,0,None,None,0,None,0,None,0,0,0,0,0,0,0,0,0,0,0,0,0,0,0,?,?,0,0,0,0,0,0,0,?
Midlife,Few,Normal,Normal,1,Normal,Some,1,Normal,0,None,1,2,1,0,0,1,0,0,0,0,0,0,0,0,1,16,16,0,0,0,0,0,0,0,?
Young,Few,Normal,Normal,0,None,None,1,Some,0,None,0,0,0,0,0,0,0,0,0,0,0,0,0,0,0,?,?,0,0,0,0,0,0,0,?
Young,Normal,Early,Normal,0,None,None,1,Some,0,None,0,0,0,0,0,0,0,0,0,0,0,0,0,0,0,?,?,0,0,0,0,0,0,0,?
Young,Few,Normal,Normal,0,None,None,1,?,0,None,0,0,0,0,0,0,0,0,0,0,0,0,0,0,0,?,?,0,0,0,0,0,0,0,?
Midlife,Normal,Normal,Normal,1,Normal,Some,?,?,?,?,?,?,?,?,?,?,?,?,?,?,?,?,?,?,0,?,?,0,0,0,0,0,0,0,?
Young,Few,Normal,Normal,0,None,None,0,None,0,None,0,0,0,0,0,0,0,0,0,0,0,0,0,0,0,?,?,0,0,0,0,0,0,0,?
Midlife,Normal,Late,Normal,0,None,None,1,Some,0,None,0,0,0,0,0,0,0,0,0,0,0,0,0,0,0,?,?,0,0,0,0,0,0,0,?
Midlife,Normal,Early,Many,0,None,None,1,Some,0,None,0,0,0,0,0,0,0,0,0,0,0,0,0,0,0,?,?,0,0,0,0,0,0,0,?
Young,Few,Normal,Normal,0,None,None,1,Some,0,None,0,0,0,0,0,0,0,0,0,0,0,0,0,0,0,?,?,0,0,0,0,0,0,0,?
Midlife,Few,Normal,Normal,0,None,None,1,Normal,0,None,0,0,0,0,0,0,0,0,0,0,0,0,0,0,0,?,?,0,0,0,0,0,0,0,?
Young,Normal,Normal,Normal,1,?,?,1,Normal,0,None,0,0,0,0,0,0,0,0,0,0,0,0,0,0,0,?,?,0,0,0,0,0,0,0,?
Young,Few,Normal,Normal,0,None,None,1,Some,0,None,0,0,0,0,0,0,0,0,0,0,0,0,0,0,0,?,?,0,0,0,0,0,0,0,?
Young,Few,Early,Normal,0,None,None,1,Some,0,None,0,0,0,0,0,0,0,0,0,0,0,0,0,0,0,?,?,0,0,0,0,0,0,0,?
Midlife,Few,Normal,Normal,0,None,None,1,?,1,Some,0,0,0,0,0,0,0,0,0,0,0,0,0,0,0,?,?,0,0,0,0,0,0,0,?
Young,Few,Early,Normal,1,Few,?,1,?,0,None,0,0,0,0,0,0,0,0,0,0,0,0,0,0,0,?,?,0,0,0,0,0,0,0,?
Midlife,Normal,Normal,Normal,0,None,None,1,?,0,None,0,0,0,0,0,0,0,0,0,0,0,0,0,0,0,?,?,0,0,0,0,0,0,0,?
Midlife,Few,Normal,Normal,0,None,None,1,?,1,Normal,0,0,0,0,0,0,0,0,0,0,0,0,0,0,0,?,?,0,0,0,0,0,0,0,?
Young,Few,Normal,Normal,0,None,None,?,?,?,?,?,?,?,?,?,?,?,?,?,?,?,?,?,?,0,?,?,0,0,0,0,0,0,0,?
Midlife,Normal,Normal,Many,0,None,None,0,None,0,None,0,0,0,0,0,0,0,0,0,0,0,0,0,0,0,?,?,0,0,0,0,0,0,0,?
Young,Few,Normal,Normal,0,None,None,?,?,?,?,?,?,?,?,?,?,?,?,?,?,?,?,?,?,0,?,?,0,0,0,0,0,0,0,?
Midlife,Few,Early,Normal,0,None,None,?,?,?,?,?,?,?,?,?,?,?,?,?,?,?,?,?,?,0,?,?,0,0,0,0,0,0,0,?
Midlife,Normal,Normal,Normal,0,None,None,1,Normal,0,None,0,0,0,0,0,0,0,0,0,0,0,0,0,0,0,?,?,0,0,0,0,0,0,0,?
Young,Normal,Early,Normal,0,None,None,0,None,0,None,0,0,0,0,0,0,0,0,0,0,0,0,0,0,0,?,?,0,0,0,0,0,1,1,?
Young,Few,Early,Normal,0,None,None,1,Normal,0,None,0,0,0,0,0,0,0,0,0,0,0,0,0,0,0,?,?,0,0,0,0,0,0,0,?
Young,Normal,Normal,Normal,0,None,None,1,Some,0,None,0,0,0,0,0,0,0,0,0,0,0,0,0,0,0,?,?,0,0,0,0,0,0,0,?
Young,Few,Normal,Normal,0,None,None,0,None,0,None,0,0,0,0,0,0,0,0,0,0,0,0,0,0,0,?,?,0,0,0,0,0,0,0,?
Young,Few,Normal,Normal,0,None,None,1,?,0,None,0,0,0,0,0,0,0,0,0,0,0,0,0,0,0,?,?,0,0,0,0,0,0,0,?
Young,Normal,Normal,Normal,0,None,None,0,None,0,None,0,0,0,0,0,0,0,0,0,0,0,0,0,0,0,?,?,0,0,0,0,0,0,0,?
Young,Few,Early,Normal,0,None,None,0,None,0,None,0,0,0,0,0,0,0,0,0,0,0,0,0,0,0,?,?,0,0,0,0,0,0,0,?
Young,Normal,Early,Normal,1,Few,Some,0,None,0,None,0,0,0,0,0,0,0,0,0,0,0,0,0,0,0,?,?,0,0,0,0,0,0,0,?
Young,Normal,Normal,Normal,0,None,None,1,?,0,None,0,0,0,0,0,0,0,0,0,0,0,0,0,0,0,?,?,0,0,0,0,0,0,0,?
Young,Few,Normal,Normal,1,Few,?,0,None,0,None,1,2,1,0,0,1,0,0,0,0,0,0,0,0,1,1,1,0,0,0,0,1,1,0,?
Young,Normal,Normal,Normal,0,None,None,0,None,0,None,0,0,0,0,0,0,0,0,0,0,0,0,0,0,0,?,?,0,0,0,0,0,0,0,?
Midlife,Normal,Normal,Normal,0,None,None,1,Some,0,None,0,0,0,0,0,0,0,0,0,0,0,0,0,0,0,?,?,0,0,0,0,0,0,0,?
Young,Normal,Normal,Normal,0,None,None,?,?,?,?,?,?,?,?,?,?,?,?,?,?,?,?,?,?,0,?,?,0,0,0,0,0,0,0,?
Young,Normal,Early,Normal,0,None,None,1,Some,0,None,0,0,0,0,0,0,0,0,0,0,0,0,0,0,0,?,?,0,0,0,0,0,0,0,?
Young,Few,Early,?,0,None,None,?,?,?,?,?,?,?,?,?,?,?,?,?,?,?,?,?,?,0,?,?,0,0,0,0,0,0,0,?
Midlife,Normal,Normal,?,0,None,None,1,Normal,0,None,0,0,0,0,0,0,0,0,0,0,0,0,0,0,0,?,?,0,0,0,0,0,0,0,?
Young,Few,Normal,Normal,0,None,None,1,Normal,0,None,1,2,1,0,0,1,0,0,0,0,0,0,0,0,0,?,?,0,0,0,0,0,0,0,?
Young,Normal,Early,Normal,0,None,None,?,?,?,?,?,?,?,?,?,?,?,?,?,?,?,?,?,?,0,?,?,0,0,0,0,0,0,0,?
Young,Few,Early,Normal,0,None,None,1,?,0,None,0,0,0,0,0,0,0,0,0,0,0,0,0,0,0,?,?,0,0,0,0,0,0,0,?
Midlife,Few,Normal,Normal,0,None,None,1,Normal,1,Normal,0,0,0,0,0,0,0,0,0,0,0,0,0,0,0,?,?,0,0,0,0,0,1,0,?
Young,Normal,Normal,Normal,1,Few,?,1,Some,0,None,0,0,0,0,0,0,0,0,0,0,0,0,0,0,0,?,?,0,0,0,0,0,0,0,?
Midlife,Normal,Normal,Normal,0,None,None,?,?,?,?,?,?,?,?,?,?,?,?,?,?,?,?,?,?,0,?,?,0,0,0,0,0,0,0,?
Young,Normal,Normal,Normal,?,?,?,?,?,?,?,?,?,?,?,?,?,?,?,?,?,?,?,?,?,0,?,?,0,0,0,0,0,0,0,?
Midlife,Normal,Early,Many,0,None,None,1,?,0,None,0,0,0,0,0,0,0,0,0,0,0,0,0,0,0,?,?,0,0,0,0,0,0,0,?
Young,Normal,Early,Normal,0,None,None,1,Some,0,None,0,0,0,0,0,0,0,0,0,0,0,0,0,0,0,?,?,0,0,0,0,0,0,0,?
Young,Normal,Normal,Normal,0,None,None,1,?,0,None,0,0,0,0,0,0,0,0,0,0,0,0,0,0,0,?,?,0,0,0,0,0,0,0,?
Midlife,Few,Late,Many,0,None,None,1,?,0,None,1,2,1,0,0,1,0,0,0,0,0,0,0,0,1,1,1,0,0,0,0,0,0,0,?
Midlife,Few,Normal,Normal,0,None,None,1,?,0,None,0,0,0,0,0,0,0,0,0,0,0,0,0,0,0,?,?,0,0,0,0,0,0,0,?
Young,Few,Late,Normal,0,None,None,0,None,0,None,0,0,0,0,0,0,0,0,0,0,0,0,0,0,0,?,?,0,0,0,0,0,0,0,?
Young,Few,Normal,Normal,0,None,None,0,None,0,None,0,0,0,0,0,0,0,0,0,0,0,0,0,0,0,?,?,0,0,0,0,0,0,0,?
Midlife,Few,Late,Normal,0,None,None,1,Normal,0,None,0,0,0,0,0,0,0,0,0,0,0,0,0,0,0,?,?,0,0,0,0,0,0,0,?
Young,Few,Early,Normal,0,None,None,1,?,0,None,0,0,0,0,0,0,0,0,0,0,0,0,0,0,0,?,?,0,0,0,0,0,0,0,?
Young,Few,Early,Normal,0,None,None,1,Some,0,None,0,0,0,0,0,0,0,0,0,0,0,0,0,0,0,?,?,0,0,0,0,0,0,0,?
Midlife,Few,Late,Normal,1,Many,Some,0,None,0,None,1,3,1,0,1,1,0,0,0,0,0,0,0,0,1,1,1,0,0,0,0,0,0,0,?
Young,Few,Normal,Normal,?,?,?,?,?,?,?,0,0,0,0,0,0,0,0,0,0,0,0,0,0,0,?,?,0,0,0,0,0,0,0,?
Young,Few,Normal,Normal,0,None,None,0,None,0,None,0,0,0,0,0,0,0,0,0,0,0,0,0,0,0,?,?,0,0,0,0,0,0,1,?
Midlife,Few,Early,Normal,0,None,None,0,None,0,None,0,0,0,0,0,0,0,0,0,0,0,0,0,0,0,?,?,0,0,0,0,0,0,0,?
Young,Few,Normal,Normal,0,None,None,1,Normal,0,None,0,0,0,0,0,0,0,0,0,0,0,0,0,0,0,?,?,0,0,0,0,0,0,0,?
Young,Few,Normal,Normal,0,None,None,0,None,0,None,0,0,0,0,0,0,0,0,0,0,0,0,0,0,0,?,?,0,0,0,0,0,0,0,?
Midlife,Few,Late,Normal,0,None,None,0,None,0,None,0,0,0,0,0,0,0,0,0,0,0,0,0,0,0,?,?,0,0,0,0,0,0,0,?
Midlife,Few,Normal,Normal,0,None,None,1,Normal,0,None,0,0,0,0,0,0,0,0,0,0,0,0,0,0,0,?,?,0,0,0,0,0,0,0,?
Young,Few,Early,Normal,0,None,None,0,None,0,None,0,0,0,0,0,0,0,0,0,0,0,0,0,0,0,?,?,0,0,0,0,0,0,0,?
Young,Few,Early,Normal,1,Normal,?,1,Normal,0,None,0,0,0,0,0,0,0,0,0,0,0,0,0,0,0,?,?,0,0,0,0,0,0,0,?
Midlife,Few,Normal,Normal,1,Normal,?,1,?,0,None,0,0,0,0,0,0,0,0,0,0,0,0,0,0,0,?,?,0,0,0,0,0,0,0,?
Young,Few,Normal,Normal,0,None,None,1,Some,0,None,0,0,0,0,0,0,0,0,0,0,0,0,0,0,0,?,?,0,0,0,0,0,0,0,?
Young,Few,Early,Normal,0,None,None,0,None,0,None,0,0,0,0,0,0,0,0,0,0,0,0,0,0,0,?,?,0,0,0,0,0,0,0,?
Midlife,Normal,Early,Normal,0,None,None,?,?,?,?,?,?,?,?,?,?,?,?,?,?,?,?,?,?,0,?,?,0,0,0,0,0,0,0,?
Young,Normal,Early,Normal,0,None,None,0,None,0,None,0,0,0,0,0,0,0,0,0,0,0,0,0,0,0,?,?,0,0,0,0,0,1,0,?
Young,Few,Normal,Normal,0,None,None,1,Some,0,None,0,0,0,0,0,0,0,0,0,0,0,0,0,0,0,?,?,1,0,1,1,1,1,1,?
Midlife,Many,Early,Many,1,Many,Some,1,Normal,0,None,0,0,0,0,0,0,0,0,0,0,0,0,0,0,0,?,?,0,0,0,0,0,0,0,?
Young,Few,Early,Normal,0,None,None,1,?,0,None,0,0,0,0,0,0,0,0,0,0,0,0,0,0,0,?,?,0,0,0,0,0,0,0,?
Young,Few,Early,Normal,0,None,None,1,Some,0,None,0,0,0,0,0,0,0,0,0,0,0,0,0,0,0,?,?,0,0,0,0,0,0,0,?
Young,Normal,Early,Normal,0,None,None,1,Normal,0,None,0,0,0,0,0,0,0,0,0,0,0,0,0,0,0,?,?,0,0,0,0,0,0,0,?
Young,Normal,Normal,Normal,0,None,None,0,None,0,None,0,0,0,0,0,0,0,0,0,0,0,0,0,0,0,?,?,0,0,0,0,0,0,0,?
Midlife,Few,Normal,Normal,0,None,None,0,None,0,None,0,0,0,0,0,0,0,0,0,0,0,0,0,0,0,?,?,0,0,0,0,0,0,0,?
Midlife,Normal,Late,Normal,0,None,None,1,Some,0,None,0,0,0,0,0,0,0,0,0,0,0,0,0,0,0,?,?,0,0,0,0,0,0,0,?
Young,Normal,Early,Normal,1,Normal,?,?,?,?,?,?,?,?,?,?,?,?,?,?,?,?,?,?,?,0,?,?,0,0,0,0,0,0,0,?
Midlife,Normal,Early,Many,1,Normal,Some,1,Normal,0,None,0,0,0,0,0,0,0,0,0,0,0,0,0,0,0,?,?,0,0,0,0,0,0,0,?
Midlife,Normal,Early,Many,0,None,None,1,?,0,None,0,0,0,0,0,0,0,0,0,0,0,0,0,0,0,?,?,0,0,0,0,0,0,0,?
Midlife,Normal,Normal,Many,0,None,None,1,Some,0,None,0,0,0,0,0,0,0,0,0,0,0,0,0,0,0,?,?,0,0,0,0,0,0,0,?
Young,Few,Early,Normal,0,None,None,0,None,0,None,1,3,1,0,1,1,0,0,0,0,0,0,0,0,1,1,1,0,0,0,0,0,0,0,?
Young,Normal,Early,Normal,0,None,None,1,?,0,None,0,0,0,0,0,0,0,0,0,0,0,0,0,0,0,?,?,0,0,0,0,0,0,0,?
Young,Normal,Early,Normal,1,Normal,Normal,1,?,1,Normal,0,0,0,0,0,0,0,0,0,0,0,0,0,0,0,?,?,0,0,0,0,0,0,0,?
Young,Few,Early,Normal,0,None,None,0,None,0,None,0,0,0,0,0,0,0,0,0,0,0,0,0,0,0,?,?,0,0,0,0,0,0,0,?
Young,Normal,Normal,Normal,0,None,None,1,Some,0,None,0,0,0,0,0,0,0,0,0,0,0,0,0,0,0,?,?,0,0,0,0,0,0,0,?
Young,Few,Early,Normal,0,None,None,1,Normal,0,None,?,?,?,?,?,?,?,?,?,?,?,?,?,?,0,?,?,0,0,0,0,0,0,0,?
Young,Few,Normal,Normal,0,None,None,1,?,0,None,0,0,0,0,0,0,0,0,0,0,0,0,0,0,0,?,?,0,0,0,0,0,0,0,?
Young,Few,Early,Normal,0,None,None,1,Some,0,None,1,3,1,0,0,1,0,0,0,0,0,1,0,0,2,5,2,0,0,0,0,0,0,0,?
Young,Few,Early,Normal,0,None,None,0,None,0,None,0,0,0,0,0,0,0,0,0,0,0,0,0,0,0,?,?,0,0,0,0,1,1,0,?
Young,Few,Normal,Normal,1,Normal,?,1,Some,0,None,0,0,0,0,0,0,0,0,0,0,0,0,0,0,0,?,?,0,0,0,0,0,0,0,?
Midlife,Normal,Late,Normal,0,None,None,0,None,0,None,0,0,0,0,0,0,0,0,0,0,0,0,0,0,0,?,?,0,0,0,0,0,0,0,?
Midlife,Normal,Normal,Normal,0,None,None,1,Normal,0,None,0,0,0,0,0,0,0,0,0,0,0,0,0,0,0,?,?,0,0,0,0,0,0,0,?
Midlife,Normal,Normal,Normal,0,None,None,1,Some,1,Normal,0,0,0,0,0,0,0,0,0,0,0,0,0,0,0,?,?,0,0,0,0,0,0,0,?
Young,Normal,Normal,Normal,0,None,None,?,?,?,?,?,?,?,?,?,?,?,?,?,?,?,?,?,?,0,?,?,0,0,0,0,0,0,0,?
Young,Normal,Normal,Normal,0,None,None,0,None,0,None,0,0,0,0,0,0,0,0,0,0,0,0,0,0,0,?,?,0,0,0,0,0,0,0,?
Young,Few,Normal,Normal,0,None,None,1,Some,0,None,0,0,0,0,0,0,0,0,0,0,0,0,0,0,0,?,?,0,0,0,0,0,0,0,?
Midlife,Normal,Normal,Many,0,None,None,1,?,0,None,0,0,0,0,0,0,0,0,0,0,0,0,0,0,0,?,?,0,0,0,0,0,0,0,?
Midlife,Few,Late,Normal,0,None,None,?,?,?,?,?,?,?,?,?,?,?,?,?,?,?,?,?,?,0,?,?,0,0,0,0,0,0,0,?
Young,Few,Normal,Normal,0,None,None,1,Some,0,None,0,0,0,0,0,0,0,0,0,0,0,0,0,0,0,?,?,0,0,0,0,0,0,0,?
Young,Few,Normal,Normal,1,Normal,Some,1,Some,0,None,0,0,0,0,0,0,0,0,0,0,0,0,0,0,0,?,?,0,0,0,0,0,0,0,?
Young,Few,Normal,Normal,0,None,None,0,None,1,Some,0,0,0,0,0,0,0,0,0,0,0,0,0,0,0,?,?,1,0,1,1,1,1,0,?
Young,Few,Normal,Normal,0,None,None,0,None,0,None,0,0,0,0,0,0,0,0,0,0,0,0,0,0,0,?,?,0,0,0,0,0,0,1,?
Young,Few,Early,Normal,1,?,?,1,?,0,None,0,0,0,0,0,0,0,0,0,0,0,0,0,0,0,?,?,0,0,0,0,0,0,0,?
Young,Few,Early,Normal,0,None,None,1,Some,1,Some,1,2,1,0,1,0,0,0,0,0,0,0,0,0,1,2,2,0,0,0,0,0,0,0,?
Young,Few,Late,Normal,0,None,None,1,?,0,None,1,2,1,0,0,1,0,0,0,0,0,0,0,0,1,1,1,0,0,0,0,0,1,1,?
Midlife,Many,Early,Many,0,None,None,1,Many,0,None,0,0,0,0,0,0,0,0,0,0,0,0,0,0,0,?,?,0,0,0,0,0,0,0,?
Young,Few,Normal,Normal,1,Normal,?,1,Some,0,None,0,0,0,0,0,0,0,0,0,0,0,0,0,0,0,?,?,0,0,0,0,0,0,0,?
Young,?,Normal,Normal,0,None,None,1,?,0,None,0,0,0,0,0,0,0,0,0,0,0,0,0,0,0,?,?,0,0,0,0,0,0,0,?
Young,Few,Early,Normal,0,None,None,1,?,0,None,0,0,0,0,0,0,0,0,0,0,0,0,0,0,0,?,?,0,0,0,0,0,0,0,?
Young,Normal,Normal,Many,1,Normal,Some,?,?,?,?,?,?,?,?,?,?,?,?,?,?,?,?,?,?,0,?,?,0,0,0,0,0,0,0,?
Young,Normal,Normal,Normal,1,Normal,?,1,Some,0,None,0,0,0,0,0,0,0,0,0,0,0,0,0,0,0,?,?,0,0,0,0,0,0,0,?
Midlife,Few,Early,Many,0,None,None,1,Some,0,None,0,0,0,0,0,0,0,0,0,0,0,0,0,0,0,?,?,0,0,0,0,0,0,0,?
Midlife,Few,Normal,Normal,0,None,None,1,?,0,None,0,0,0,0,0,0,0,0,0,0,0,0,0,0,0,?,?,0,0,0,0,0,0,0,?
Young,Few,Normal,Normal,0,None,None,1,?,1,Some,0,0,0,0,0,0,0,0,0,0,0,0,0,0,0,?,?,0,0,0,0,0,0,0,?
Young,Few,Early,Normal,0,None,None,1,Some,0,None,0,0,0,0,0,0,0,0,0,0,0,0,0,0,0,?,?,0,0,0,0,0,0,0,?
Young,Few,Normal,Normal,0,None,None,0,None,0,None,0,0,0,0,0,0,0,0,0,0,0,0,0,0,0,?,?,0,0,0,0,0,0,0,?
Midlife,Normal,Normal,Normal,0,None,None,1,?,0,None,0,0,0,0,0,0,0,0,0,0,0,0,0,0,0,?,?,0,0,0,0,0,0,0,?
Young,Few,Early,Normal,0,None,None,0,None,0,None,0,0,0,0,0,0,0,0,0,0,0,0,0,0,0,?,?,0,0,0,0,0,0,0,?
Midlife,Few,Early,Many,0,None,None,1,Many,0,None,0,0,0,0,0,0,0,0,0,0,0,0,0,0,0,?,?,0,0,0,0,0,0,0,?
Young,Few,Normal,Normal,0,None,None,1,Normal,0,None,0,0,0,0,0,0,0,0,0,0,0,0,0,0,0,?,?,0,0,0,0,0,0,0,?
Young,Few,Normal,Many,0,None,None,1,Normal,0,None,0,0,0,0,0,0,0,0,0,0,0,0,0,0,0,?,?,0,0,0,0,0,0,0,?
Young,Normal,Early,Normal,1,Few,Some,0,None,0,None,0,0,0,0,0,0,0,0,0,0,0,0,0,0,0,?,?,0,0,0,0,0,0,0,?
Young,Few,Early,Normal,0,None,None,1,Some,0,None,0,0,0,0,0,0,0,0,0,0,0,0,0,0,0,?,?,0,0,0,0,0,0,0,?
Young,Few,Normal,Normal,0,None,None,?,?,?,?,?,?,?,?,?,?,?,?,?,?,?,?,?,?,0,?,?,0,0,0,0,0,0,0,?
Midlife,Many,Normal,Normal,0,None,None,0,None,0,None,0,0,0,0,0,0,0,0,0,0,0,0,0,0,0,?,?,0,0,0,0,0,0,0,?
Midlife,Few,Normal,Many,0,None,None,1,?,0,None,0,0,0,0,0,0,0,0,0,0,0,0,0,0,0,?,?,0,0,0,0,0,0,0,?
Midlife,Normal,Normal,Many,0,None,None,0,None,0,None,0,0,0,0,0,0,0,0,0,0,0,0,0,0,0,?,?,0,0,0,0,0,0,0,?
Midlife,Few,Normal,Many,0,None,None,1,Normal,0,None,0,0,0,0,0,0,0,0,0,0,0,0,0,0,0,?,?,0,0,0,0,0,0,0,?
Young,Few,Normal,Normal,0,None,None,0,None,0,None,0,0,0,0,0,0,0,0,0,0,0,0,0,0,0,?,?,0,0,0,0,0,0,0,?
Young,Few,Early,Normal,0,None,None,0,None,0,None,0,0,0,0,0,0,0,0,0,0,0,0,0,0,0,?,?,0,0,0,0,0,0,0,?
Midlife,Normal,Normal,Normal,0,None,None,1,Normal,0,None,0,0,0,0,0,0,0,0,0,0,0,0,0,0,0,?,?,0,0,0,0,0,0,0,?
Midlife,Few,Normal,Normal,0,None,None,1,Some,0,None,0,0,0,0,0,0,0,0,0,0,0,0,0,0,0,?,?,0,0,0,0,0,0,0,?
Midlife,Many,Normal,Many,0,None,None,0,None,0,None,0,0,0,0,0,0,0,0,0,0,0,0,0,0,0,?,?,0,0,0,0,0,0,0,?
Young,Normal,Early,Normal,1,Few,?,1,?,0,None,0,0,0,0,0,0,0,0,0,0,0,0,0,0,0,?,?,0,0,0,0,0,0,1,?
Young,Few,Normal,Normal,0,None,None,1,Normal,0,None,0,0,0,0,0,0,0,0,0,0,0,0,0,0,0,?,?,0,0,0,0,1,1,0,?
Midlife,Normal,Normal,Many,0,None,None,0,None,0,None,1,1,0,0,0,0,0,0,0,1,0,0,0,0,1,1,1,0,0,0,0,0,0,0,?
Young,Few,Early,Normal,0,None,None,1,?,0,None,0,0,0,0,0,0,0,0,0,0,0,0,0,0,0,?,?,0,0,0,0,0,1,1,?
Young,?,Early,Normal,0,None,None,1,Normal,0,None,0,0,0,0,0,0,0,0,0,0,0,0,0,0,0,?,?,0,0,0,0,0,0,0,?
Young,Few,Normal,Normal,?,?,?,0,None,0,None,1,3,1,0,0,1,0,0,0,0,0,1,0,0,2,19,1,0,0,0,0,0,0,0,?
Midlife,Few,Normal,Normal,1,Normal,?,1,Normal,0,None,0,0,0,0,0,0,0,0,0,0,0,0,0,0,0,?,?,0,0,0,0,0,0,1,?
Young,Few,Normal,?,1,Normal,Some,1,Some,0,None,0,0,0,0,0,0,0,0,0,0,0,0,0,0,0,?,?,0,0,0,0,0,0,0,?
Midlife,Normal,Normal,?,0,None,None,1,Normal,0,None,0,0,0,0,0,0,0,0,0,0,0,0,0,0,0,?,?,0,0,0,0,0,0,0,?
Older,Few,Early,?,0,None,None,0,None,1,?,0,0,0,0,0,0,0,0,0,0,0,0,0,0,0,?,?,0,1,0,1,0,0,0,?
Young,Few,Normal,?,0,None,None,1,Some,0,None,0,0,0,0,0,0,0,0,0,0,0,0,0,0,0,?,?,0,1,0,1,0,0,0,?
Midlife,Few,Normal,?,0,None,None,1,Normal,1,Normal,0,0,0,0,0,0,0,0,0,0,0,0,0,0,0,?,?,0,1,0,1,0,0,0,?
Young,Normal,Normal,None,0,None,None,0,None,0,None,0,0,0,0,0,0,0,0,0,0,0,0,0,0,0,?,?,0,1,0,1,0,0,0,?
Young,Few,Normal,Normal,0,None,None,1,Some,0,None,0,0,0,0,0,0,0,0,0,0,0,0,0,0,0,?,?,0,0,0,0,0,0,0,?
Young,Few,Normal,Normal,0,None,None,1,Normal,0,None,0,0,0,0,0,0,0,0,0,0,0,0,0,0,0,?,?,0,0,0,0,0,0,0,?
Young,Few,Early,Normal,0,None,None,1,Some,0,None,0,0,0,0,0,0,0,0,0,0,0,0,0,0,0,?,?,0,0,0,0,0,0,0,?
Midlife,Normal,Normal,Normal,0,None,None,1,?,0,None,0,0,0,0,0,0,0,0,0,0,0,0,0,0,0,?,?,0,0,0,0,0,0,0,?
Young,Few,Early,Normal,0,None,None,0,None,0,None,0,0,0,0,0,0,0,0,0,0,0,0,0,0,0,?,?,0,0,0,0,0,0,0,?
Young,Normal,Normal,Normal,0,None,None,1,?,0,None,0,0,0,0,0,0,0,0,0,0,0,0,0,0,0,?,?,0,0,0,0,0,0,0,?
Midlife,Normal,Normal,Many,1,Many,Many,1,?,0,None,0,0,0,0,0,0,0,0,0,0,0,0,0,0,0,?,?,0,0,0,0,0,0,0,?
Young,Few,Normal,Normal,0,None,None,0,None,0,None,0,0,0,0,0,0,0,0,0,0,0,0,0,0,0,?,?,0,0,0,0,0,0,0,?
Midlife,Normal,Normal,Many,0,None,None,1,Normal,1,Some,0,0,0,0,0,0,0,0,0,0,0,0,0,0,0,?,?,0,0,0,0,1,1,1,?
Young,Few,Early,Normal,0,None,None,1,Normal,0,None,0,0,0,0,0,0,0,0,0,0,0,0,0,0,0,?,?,0,0,0,0,0,0,1,?
Young,Normal,Early,Normal,0,None,None,1,?,0,None,0,0,0,0,0,0,0,0,0,0,0,0,0,0,0,?,?,0,0,0,0,0,0,0,?
Older,Few,Normal,Many,0,None,None,0,None,0,None,0,0,0,0,0,0,0,0,0,0,0,0,0,0,0,?,?,0,0,0,0,0,0,0,?
Older,Normal,Normal,Many,1,Many,?,0,None,0,None,0,0,0,0,0,0,0,0,0,0,0,0,0,0,0,?,?,0,0,0,0,0,1,0,?
Midlife,Normal,Late,Normal,?,?,?,1,Some,1,Normal,0,0,0,0,0,0,0,0,0,0,0,0,0,0,0,?,?,1,0,1,1,0,1,0,?
Midlife,Few,Normal,Normal,0,None,None,1,Many,0,None,0,0,0,0,0,0,0,0,0,0,0,0,0,0,0,?,?,0,0,0,0,0,1,1,?
Older,Few,Normal,Many,0,None,None,0,None,1,Many,0,0,0,0,0,0,0,0,0,0,0,0,0,0,0,?,?,0,0,0,0,0,1,0,?
Young,Few,Early,None,0,None,None,0,None,0,None,0,0,0,0,0,0,0,0,0,0,0,0,0,0,0,?,?,0,0,0,0,0,0,0,?
Midlife,Normal,Normal,Many,0,None,None,1,Normal,1,Some,0,0,0,0,0,0,0,0,0,0,0,0,0,0,0,?,?,0,0,0,0,0,1,0,?
Midlife,Normal,Normal,Many,0,None,None,1,Some,0,None,1,2,1,0,0,1,0,0,0,0,0,0,0,0,1,18,18,0,0,0,0,0,0,0,?
Midlife,Few,Normal,Normal,0,None,None,1,Normal,0,None,0,0,0,0,0,0,0,0,0,0,0,0,0,0,0,?,?,0,0,0,0,0,0,0,?
Older,Normal,Late,Normal,1,Few,?,0,None,0,None,0,0,0,0,0,0,0,0,0,0,0,0,0,0,0,?,?,0,0,0,0,0,0,0,?
Midlife,Few,Early,None,0,None,None,0,None,0,None,0,0,0,0,0,0,0,0,0,0,0,0,0,0,0,?,?,0,0,0,0,0,0,0,?
Midlife,Few,Normal,Normal,0,None,None,1,?,0,None,0,0,0,0,0,0,0,0,0,0,0,0,0,0,0,?,?,0,0,0,0,0,0,0,?
Older,Few,Normal,Many,0,None,None,1,Normal,0,None,0,0,0,0,0,0,0,0,0,0,0,0,0,0,0,?,?,0,0,0,0,0,0,0,?
Midlife,Normal,Early,Normal,0,None,None,0,None,0,None,0,0,0,0,0,0,0,0,0,0,0,0,0,0,0,?,?,0,0,0,0,0,0,0,?
Midlife,Few,Late,None,0,None,None,1,Normal,0,None,0,0,0,0,0,0,0,0,0,0,0,0,0,0,0,?,?,0,0,0,0,0,0,0,?
Older,Few,Normal,Many,0,None,None,0,None,1,Some,0,0,0,0,0,0,0,0,0,0,0,0,0,0,0,?,?,0,0,0,0,0,0,0,?
Midlife,Few,Normal,Normal,0,None,None,1,Some,1,Some,0,0,0,0,0,0,0,0,0,0,0,0,0,0,0,?,?,0,0,0,0,0,0,0,?
Midlife,Few,Early,Many,0,None,None,0,None,0,None,0,0,0,0,0,0,0,0,0,0,0,0,0,0,0,?,?,0,0,0,0,0,0,0,?
Midlife,Few,Early,Many,0,None,None,1,Some,0,None,1,1,0,0,0,0,1,0,0,0,0,0,0,0,1,3,3,0,0,0,0,0,0,0,?
Midlife,Normal,Normal,Normal,0,None,None,0,None,0,None,0,0,0,0,0,0,0,0,0,0,0,0,0,0,0,?,?,0,0,0,0,0,1,0,?
Midlife,Normal,Normal,Many,1,Normal,Some,1,Some,0,None,1,1,0,0,0,0,0,0,0,0,0,1,0,0,1,16,16,0,0,0,0,0,1,1,?
Midlife,Normal,Early,Many,0,None,None,0,None,0,None,0,0,0,0,0,0,0,0,0,0,0,0,0,0,0,?,?,0,0,0,0,0,1,1,?
Young,Few,Late,?,0,None,None,1,Some,0,None,0,0,0,0,0,0,0,0,0,0,0,0,0,0,0,?,?,0,0,0,0,0,0,0,?
Young,Few,Early,?,0,None,None,1,?,0,None,0,0,0,0,0,0,0,0,0,0,0,0,0,0,0,?,?,0,0,0,0,0,0,0,?
Young,Few,Normal,?,1,Normal,?,1,Some,0,None,1,2,1,0,0,1,0,0,0,0,0,0,0,0,1,7,7,0,0,0,0,0,1,0,?
Young,Few,Early,?,0,None,None,1,?,0,None,0,0,0,0,0,0,0,0,0,0,0,0,0,0,0,?,?,0,0,0,0,0,0,0,?
Young,Few,Normal,?,0,None,None,0,None,0,None,0,0,0,0,0,0,0,0,0,0,0,0,0,0,0,?,?,0,0,0,0,0,1,0,?
Midlife,Few,Early,?,0,None,None,0,None,0,None,0,0,0,0,0,0,0,0,0,0,0,0,0,0,0,?,?,0,0,0,0,0,0,0,?
Midlife,Normal,Normal,?,0,None,None,1,?,0,None,0,0,0,0,0,0,0,0,0,0,0,0,0,0,0,?,?,0,0,0,0,0,0,0,?
Young,Few,Normal,?,1,Few,?,?,?,?,?,?,?,?,?,?,?,?,?,?,?,?,?,?,?,0,?,?,0,0,0,0,0,0,0,?
Young,Few,Early,?,0,None,None,1,Some,0,None,0,0,0,0,0,0,0,0,0,0,0,0,0,0,0,?,?,0,0,0,0,0,0,0,?
Midlife,Normal,Normal,?,0,None,None,0,None,0,None,0,0,0,0,0,0,0,0,0,0,0,0,0,0,0,?,?,0,0,0,0,0,0,0,?
Young,Normal,Early,?,1,?,?,0,None,0,None,0,0,0,0,0,0,0,0,0,0,0,0,0,0,0,?,?,0,0,0,0,0,0,0,?
Midlife,Few,Normal,?,0,None,None,?,?,?,?,?,?,?,?,?,?,?,?,?,?,?,?,?,?,0,?,?,0,0,0,0,0,0,0,?
Midlife,Few,Normal,?,0,None,None,?,?,?,?,?,?,?,?,?,?,?,?,?,?,?,?,?,?,0,?,?,0,0,0,0,0,0,0,?
Young,Normal,Early,?,0,None,None,1,?,0,None,0,0,0,0,0,0,0,0,0,0,0,0,0,0,0,?,?,0,0,0,0,0,0,0,?
Young,Few,Early,?,0,None,None,1,Some,0,None,0,0,0,0,0,0,0,0,0,0,0,0,0,0,0,?,?,0,0,0,0,0,0,0,?
Midlife,Normal,Normal,?,1,Normal,Some,0,None,0,None,0,0,0,0,0,0,0,0,0,0,0,0,0,0,0,?,?,0,0,0,0,0,1,0,?
Midlife,Normal,Late,?,0,None,None,?,?,?,?,?,?,?,?,?,?,?,?,?,?,?,?,?,?,0,?,?,0,0,0,0,0,0,0,?
Young,Few,Normal,?,0,None,None,1,?,0,None,0,0,0,0,0,0,0,0,0,0,0,0,0,0,0,?,?,0,0,0,0,0,0,0,?
Young,Few,Normal,?,0,None,None,0,None,0,None,0,0,0,0,0,0,0,0,0,0,0,0,0,0,0,?,?,0,0,0,0,0,0,0,?
Young,Few,Late,?,0,None,None,0,None,0,None,0,0,0,0,0,0,0,0,0,0,0,0,0,0,0,?,?,0,0,0,0,0,0,0,?
Young,Few,Normal,Normal,0,None,None,1,Normal,0,None,0,0,0,0,0,0,0,0,0,0,0,0,0,0,0,?,?,0,0,0,0,0,0,0,?
Midlife,Few,Normal,Normal,0,None,None,1,Normal,0,None,0,0,0,0,0,0,0,0,0,0,0,0,0,0,0,?,?,0,0,0,0,0,0,0,?
Young,Few,Early,Normal,0,None,None,1,?,0,None,0,0,0,0,0,0,0,0,0,0,0,0,0,0,0,?,?,0,0,0,0,0,0,0,?
Young,Normal,Normal,Normal,1,?,?,0,None,0,None,0,0,0,0,0,0,0,0,0,0,0,0,0,0,0,?,?,0,0,0,0,0,0,0,?
Young,Few,Normal,Normal,0,None,None,0,None,0,None,0,0,0,0,0,0,0,0,0,0,0,0,0,0,0,?,?,0,0,0,0,0,0,0,?
Midlife,Few,Normal,Normal,0,None,None,1,Normal,0,None,0,0,0,0,0,0,0,0,0,0,0,0,0,0,0,?,?,0,0,0,0,0,0,0,?
Young,Few,Early,Normal,0,None,None,0,None,0,None,0,0,0,0,0,0,0,0,0,0,0,0,0,0,0,?,?,0,0,0,0,0,0,0,?
Young,Normal,Early,Normal,0,None,None,0,None,0,None,0,0,0,0,0,0,0,0,0,0,0,0,0,0,0,?,?,0,0,0,0,0,0,0,?
Midlife,Few,Early,Many,0,None,None,1,Normal,1,?,0,0,0,0,0,0,0,0,0,0,0,0,0,0,0,?,?,0,0,0,0,0,0,0,?
Young,Normal,Normal,Normal,0,None,None,0,None,0,None,0,0,0,0,0,0,0,0,0,0,0,0,0,0,0,?,?,0,0,0,0,0,0,0,?
Midlife,Few,Normal,Normal,0,None,None,1,Many,0,None,0,0,0,0,0,0,0,0,0,0,0,0,0,0,0,?,?,0,0,0,0,0,1,0,?
Young,Few,Normal,Normal,0,None,None,1,Some,0,None,0,0,0,0,0,0,0,0,0,0,0,0,0,0,0,?,?,0,0,0,0,0,0,0,?
Midlife,Few,Early,Many,0,None,None,0,None,0,None,0,0,0,0,0,0,0,0,0,0,0,0,0,0,0,?,?,0,0,0,0,0,0,0,?
Young,Normal,Early,Normal,1,Normal,Some,1,Normal,0,None,0,0,0,0,0,0,0,0,0,0,0,0,0,0,0,?,?,0,0,0,0,0,0,0,?
Young,Few,Normal,Normal,1,Normal,Normal,1,Some,0,None,0,0,0,0,0,0,0,0,0,0,0,0,0,0,0,?,?,0,0,0,0,0,0,0,?
Midlife,Few,Late,Normal,0,None,None,1,?,0,None,0,0,0,0,0,0,0,0,0,0,0,0,0,0,0,?,?,0,0,0,0,0,0,0,?
Young,Few,Normal,Normal,0,None,None,1,Normal,0,None,0,0,0,0,0,0,0,0,0,0,0,0,0,0,0,?,?,0,0,0,0,0,0,0,?
Midlife,Normal,Normal,Normal,0,None,None,1,Normal,0,None,0,0,0,0,0,0,0,0,0,0,0,0,0,0,0,?,?,0,0,0,0,0,0,0,?
Midlife,Few,Normal,Normal,0,None,None,1,Normal,0,None,0,0,0,0,0,0,0,0,0,0,0,0,0,0,0,?,?,1,0,1,1,0,0,1,?
Midlife,Normal,Late,Normal,0,None,None,1,Normal,0,None,0,0,0,0,0,0,0,0,0,0,0,0,0,0,0,?,?,0,0,0,0,0,0,0,?
Young,Normal,Normal,Normal,0,None,None,1,Some,0,None,0,0,0,0,0,0,0,0,0,0,0,0,0,0,0,?,?,0,0,0,0,0,0,0,?
Midlife,Normal,Normal,Normal,0,None,None,1,Many,1,Normal,0,0,0,0,0,0,0,0,0,0,0,0,0,0,0,?,?,0,0,0,0,0,0,0,?
Young,Few,Normal,Normal,0,None,None,0,None,0,None,0,0,0,0,0,0,0,0,0,0,0,0,0,0,0,?,?,0,0,0,0,0,0,0,?
Young,Few,Normal,Normal,0,None,None,0,None,?,?,?,?,?,?,?,?,?,?,?,?,?,?,?,?,0,?,?,0,0,0,0,0,0,0,?
Midlife,Few,Normal,Many,0,None,None,1,Some,0,None,0,0,0,0,0,0,0,0,0,0,0,0,0,0,0,?,?,0,0,0,0,0,0,0,?
Midlife,Few,Normal,Normal,0,None,None,1,Normal,1,?,0,0,0,0,0,0,0,0,0,0,0,0,0,0,0,?,?,0,0,0,0,0,0,0,?
Young,Few,Early,Normal,1,Few,?,?,?,?,?,?,?,?,?,?,?,?,?,?,?,?,?,?,?,0,?,?,0,0,0,0,0,0,0,?
Midlife,Normal,Normal,Many,0,None,None,1,Some,0,None,0,0,0,0,0,0,0,0,0,0,0,0,0,0,0,?,?,0,0,0,0,0,0,0,?
Young,Few,Normal,Normal,0,None,None,0,None,0,None,0,0,0,0,0,0,0,0,0,0,0,0,0,0,0,?,?,0,0,0,0,0,0,0,?
Midlife,Many,Normal,Normal,0,None,None,0,None,0,None,0,0,0,0,0,0,0,0,0,0,0,0,0,0,0,?,?,1,0,1,1,0,0,0,?
Midlife,Few,Normal,Normal,1,?,?,0,None,0,None,1,2,1,0,0,1,0,0,0,0,0,0,0,0,1,3,3,0,0,0,0,0,1,0,?
Midlife,Few,Normal,Many,0,None,None,0,None,0,None,0,0,0,0,0,0,0,0,0,0,0,0,0,0,0,?,?,0,0,0,0,0,0,0,?
Young,Few,Early,Normal,0,None,None,?,?,?,?,?,?,?,?,?,?,?,?,?,?,?,?,?,?,0,?,?,0,0,0,0,0,0,0,?
Young,Many,Early,Normal,0,None,None,1,?,0,None,1,2,1,0,0,1,0,0,0,0,0,0,0,0,1,4,4,0,0,0,0,0,0,0,?
Midlife,Normal,Normal,Many,1,?,Some,1,?,0,None,1,1,0,0,0,0,1,0,0,0,0,0,0,0,1,5,5,0,0,0,0,0,0,0,?
Young,Normal,Early,?,1,Few,Some,0,None,0,None,0,0,0,0,0,0,0,0,0,0,0,0,0,0,0,?,?,0,0,0,0,0,0,0,?
Young,Few,Early,?,0,None,None,0,None,0,None,0,0,0,0,0,0,0,0,0,0,0,0,0,0,0,?,?,0,0,0,0,0,0,0,?
Young,Few,Early,Many,0,None,None,1,Some,1,Some,0,0,0,0,0,0,0,0,0,0,0,0,0,0,0,?,?,0,0,0,0,0,0,0,?
Young,Few,Normal,Normal,0,None,None,1,Some,0,None,0,0,0,0,0,0,0,0,0,0,0,0,0,0,0,?,?,0,0,0,0,0,0,0,?
Young,Normal,Early,Normal,0,None,None,1,Some,0,None,0,0,0,0,0,0,0,0,0,0,0,0,0,0,0,?,?,0,0,0,0,0,0,0,?
Midlife,Normal,Normal,Normal,0,None,None,1,Some,0,None,1,2,1,0,0,1,0,0,0,0,0,0,0,0,1,1,1,0,0,0,0,0,0,0,?
Young,Normal,Early,Normal,0,None,None,0,None,0,None,0,0,0,0,0,0,0,0,0,0,0,0,0,0,0,?,?,0,0,0,0,0,1,1,?
Midlife,Few,Normal,Normal,0,None,None,?,?,?,?,?,?,?,?,?,?,?,?,?,?,?,?,?,?,0,?,?,0,0,0,0,0,0,0,?
Midlife,?,Early,Many,0,None,None,1,?,0,None,0,0,0,0,0,0,0,0,0,0,0,0,0,0,0,?,?,0,0,0,0,0,0,0,?
Young,Few,Normal,Normal,0,None,None,1,Normal,0,None,0,0,0,0,0,0,0,0,0,0,0,0,0,0,0,?,?,0,0,0,0,1,1,0,?
Midlife,Normal,Normal,Many,0,None,None,0,None,0,None,0,0,0,0,0,0,0,0,0,0,0,0,0,0,0,?,?,0,0,0,0,0,1,0,?
Midlife,Few,Normal,Normal,1,Normal,?,0,None,0,None,0,0,0,0,0,0,0,0,0,0,0,0,0,0,0,?,?,0,0,0,0,0,0,0,?
Young,Normal,Normal,Normal,0,None,None,1,Some,1,Some,0,0,0,0,0,0,0,0,0,0,0,0,0,0,0,?,?,0,0,0,0,0,1,0,?
Young,Normal,Normal,Normal,0,None,None,1,Some,0,None,?,?,?,?,?,?,?,?,?,?,?,?,?,?,0,?,?,0,0,0,0,0,0,0,?
Midlife,Normal,Normal,Normal,0,None,None,0,None,0,None,0,0,0,0,0,0,0,0,0,0,0,0,0,0,0,?,?,0,0,0,0,0,0,0,?
Young,Normal,Early,Normal,0,None,None,0,None,0,None,0,0,0,0,0,0,0,0,0,0,0,0,0,0,0,?,?,0,0,0,0,0,0,1,?
Young,Few,Early,Normal,0,None,None,1,?,0,None,1,2,1,0,0,1,0,0,0,0,0,0,0,0,1,2,2,0,0,0,0,0,0,0,?
Midlife,?,Normal,Many,1,?,?,?,?,?,?,?,?,?,?,?,?,?,?,?,?,?,?,?,?,0,?,?,0,0,0,0,0,0,0,?
Young,Few,Normal,Normal,0,None,None,?,?,?,?,?,?,?,?,?,?,?,?,?,?,?,?,?,?,0,?,?,0,0,0,0,0,0,0,?
Midlife,Normal,Normal,Many,0,None,None,1,Some,1,Normal,0,0,0,0,0,0,0,0,0,0,0,0,0,0,0,?,?,1,0,1,1,0,0,0,?
Young,Few,Early,Normal,0,None,None,1,?,1,Normal,0,0,0,0,0,0,0,0,0,0,0,0,0,0,0,?,?,0,0,0,0,0,0,0,?
Young,Normal,Early,Many,0,None,None,1,Some,0,None,0,0,0,0,0,0,0,0,0,0,0,0,0,0,0,?,?,0,1,0,1,0,0,0,?
Young,Few,Early,Normal,0,None,None,1,Normal,0,None,0,0,0,0,0,0,0,0,0,0,0,0,0,0,0,?,?,0,0,0,0,0,0,0,?
Young,Few,Early,Normal,0,None,None,?,?,?,?,?,?,?,?,?,?,?,?,?,?,?,?,?,?,0,?,?,0,0,0,0,0,0,0,?
Young,Few,Normal,Normal,0,None,None,0,None,0,None,0,0,0,0,0,0,0,0,0,0,0,0,0,0,0,?,?,0,0,0,0,0,0,0,?
Young,Few,Early,Normal,0,None,None,?,?,?,?,?,?,?,?,?,?,?,?,?,?,?,?,?,?,0,?,?,0,1,0,1,0,0,0,?
Young,Normal,Early,Many,?,?,?,1,Some,1,Some,1,1,0,0,0,0,1,0,0,0,0,0,0,0,1,2,2,0,0,0,0,0,0,0,?
Midlife,Few,Normal,Normal,0,None,None,?,?,?,?,?,?,?,?,?,?,?,?,?,?,?,?,?,?,0,?,?,0,0,0,0,0,0,0,?
Young,Many,Early,Normal,0,None,None,?,?,?,?,?,?,?,?,?,?,?,?,?,?,?,?,?,?,0,?,?,0,0,0,0,0,0,0,?
Young,Few,Early,Normal,?,?,?,?,?,0,None,0,0,0,0,0,0,0,0,0,0,0,0,0,0,0,?,?,0,0,0,0,0,0,0,?
Midlife,Normal,Normal,Normal,1,Many,Normal,0,None,1,Some,0,0,0,0,0,0,0,0,0,0,0,0,0,0,0,?,?,0,0,0,0,0,0,0,?
Midlife,Few,Early,Normal,0,None,None,1,Some,0,None,0,0,0,0,0,0,0,0,0,0,0,0,0,0,0,?,?,1,0,1,1,0,0,0,?
Young,Few,Normal,Normal,0,None,None,0,None,0,None,0,0,0,0,0,0,0,0,0,0,0,0,0,0,0,?,?,0,0,0,0,0,0,0,?
Midlife,Normal,Late,Normal,0,None,None,0,None,0,None,0,0,0,0,0,0,0,0,0,0,0,0,0,0,0,?,?,0,0,0,0,0,0,0,?
Young,Few,Normal,Normal,0,None,None,?,?,?,?,?,?,?,?,?,?,?,?,?,?,?,?,?,?,0,?,?,0,0,0,0,0,0,0,?
Midlife,Few,Early,Many,0,None,None,1,Normal,0,None,0,0,0,0,0,0,0,0,0,0,0,0,0,0,0,?,?,0,0,0,0,0,0,0,?
Young,Normal,Early,Normal,1,Few,Some,1,Some,0,None,0,0,0,0,0,0,0,0,0,0,0,0,0,0,0,?,?,0,0,0,0,0,0,0,?
Midlife,Normal,Normal,Normal,?,?,?,0,None,0,None,0,0,0,0,0,0,0,0,0,0,0,0,0,0,0,?,?,0,0,0,0,1,1,1,?
Midlife,Normal,Early,Normal,1,Normal,?,1,?,0,None,0,0,0,0,0,0,0,0,0,0,0,0,0,0,0,?,?,0,0,0,0,0,0,0,?
Young,Few,Normal,Normal,0,None,None,?,?,?,?,?,?,?,?,?,?,?,?,?,?,?,?,?,?,0,?,?,0,0,0,0,0,0,0,?
Young,Many,Early,Normal,0,None,None,1,Some,0,None,0,0,0,0,0,0,0,0,0,0,0,0,0,0,0,?,?,0,0,0,0,0,0,0,?
Midlife,Few,Normal,Normal,0,None,None,?,?,?,?,?,?,?,?,?,?,?,?,?,?,?,?,?,?,0,?,?,0,0,0,0,0,0,0,?
Young,Many,Normal,Normal,0,None,None,1,Some,0,None,1,3,1,0,0,1,0,0,0,0,0,1,0,0,1,4,4,0,0,0,0,0,1,1,?
Young,Few,Early,Normal,0,None,None,1,Normal,0,None,0,0,0,0,0,0,0,0,0,0,0,0,0,0,0,?,?,0,0,0,0,0,0,0,?
Midlife,Few,Normal,Many,0,None,None,1,Many,?,?,?,?,?,?,?,?,?,?,?,?,?,?,?,?,0,?,?,0,0,0,0,0,0,1,?
Young,Few,Normal,Normal,0,None,None,0,None,0,None,1,2,1,0,0,1,0,0,0,0,0,0,0,0,1,1,1,0,0,0,0,0,0,0,?
Young,Few,Normal,Normal,0,None,None,1,?,0,None,0,0,0,0,0,0,0,0,0,0,0,0,0,0,0,?,?,0,0,0,0,0,0,0,?
Young,Few,Early,Normal,0,None,None,0,None,0,None,0,0,0,0,0,0,0,0,0,0,0,0,0,0,0,?,?,0,0,0,0,0,0,0,?
Young,Normal,Early,Normal,1,Normal,?,?,?,?,?,?,?,?,?,?,?,?,?,?,?,?,?,?,?,0,?,?,0,0,0,0,0,0,0,?
Young,Few,Normal,Normal,0,None,None,0,None,0,None,0,0,0,0,0,0,0,0,0,0,0,0,0,0,0,?,?,0,0,0,0,0,0,0,?
Young,Few,Normal,Normal,0,None,None,?,?,?,?,?,?,?,?,?,?,?,?,?,?,?,?,?,?,0,?,?,0,0,0,0,0,0,0,?
Midlife,Normal,Normal,Normal,1,Normal,Some,1,Many,0,None,0,0,0,0,0,0,0,0,0,0,0,0,0,0,0,?,?,0,0,0,0,0,0,0,?
Midlife,Many,Normal,Many,0,None,None,1,Some,0,None,0,0,0,0,0,0,0,0,0,0,0,0,0,0,0,?,?,0,0,0,0,0,0,0,?
Midlife,Normal,Normal,Normal,0,None,None,1,?,1,Some,0,0,0,0,0,0,0,0,0,0,0,0,0,0,0,?,?,1,0,1,1,1,1,0,?
Young,Normal,Normal,Normal,0,None,None,0,None,0,None,0,0,0,0,0,0,0,0,0,0,0,0,0,0,0,?,?,0,0,0,0,0,0,0,?
Young,Normal,Early,Normal,0,None,None,0,None,0,None,0,0,0,0,0,0,0,0,0,0,0,0,0,0,0,?,?,0,0,0,0,0,0,0,?
Young,Few,Normal,Normal,0,None,None,1,Normal,0,None,0,0,0,0,0,0,0,0,0,0,0,0,0,0,0,?,?,0,0,0,0,0,0,0,?
Midlife,Normal,Normal,Normal,1,Many,Some,1,Some,0,None,0,0,0,0,0,0,0,0,0,0,0,0,0,0,0,?,?,0,0,0,0,0,0,0,?
Young,Few,Early,Normal,0,None,None,1,?,0,None,0,0,0,0,0,0,0,0,0,0,0,0,0,0,0,?,?,0,0,0,0,0,0,0,?
Young,Normal,Normal,Normal,0,None,None,0,None,0,None,0,0,0,0,0,0,0,0,0,0,0,0,0,0,0,?,?,0,0,0,0,0,0,0,?
Midlife,Many,Normal,Normal,1,Normal,Some,0,None,0,None,0,0,0,0,0,0,0,0,0,0,0,0,0,0,0,?,?,0,0,0,0,0,0,0,?
Midlife,Normal,Early,Many,1,?,?,1,Normal,0,None,0,0,0,0,0,0,0,0,0,0,0,0,0,0,0,?,?,0,0,0,0,0,0,0,?
Young,Normal,Early,Normal,1,Few,Some,0,None,0,None,0,0,0,0,0,0,0,0,0,0,0,0,0,0,0,?,?,0,0,0,0,0,0,0,?
Midlife,Few,Normal,?,1,Many,Normal,1,Normal,?,?,?,?,?,?,?,?,?,?,?,?,?,?,?,?,0,?,?,0,0,0,0,0,0,0,?
Midlife,?,Early,?,0,None,None,0,None,0,None,0,0,0,0,0,0,0,0,0,0,0,0,0,0,0,?,?,0,0,0,0,0,0,0,?
Midlife,Few,Early,?,0,None,None,0,None,1,Normal,0,0,0,0,0,0,0,0,0,0,0,0,0,0,0,?,?,0,0,0,0,0,0,0,?
Young,Few,Early,?,0,None,None,1,?,0,None,0,0,0,0,0,0,0,0,0,0,0,0,0,0,0,?,?,0,0,0,0,0,0,0,?
Young,Few,Normal,?,0,None,None,1,?,0,None,0,0,0,0,0,0,0,0,0,0,0,0,0,0,0,?,?,0,0,0,0,0,0,0,?
Young,Normal,Normal,?,0,None,None,1,?,0,None,0,0,0,0,0,0,0,0,0,0,0,0,0,0,0,?,?,0,0,0,0,0,0,0,?
Young,Few,Normal,?,0,None,None,1,Some,0,None,0,0,0,0,0,0,0,0,0,0,0,0,0,0,0,?,?,0,0,0,0,0,0,0,?
Young,Few,Early,?,0,None,None,1,?,?,?,?,?,?,?,?,?,?,?,?,?,?,?,?,?,0,?,?,0,0,0,0,0,0,0,?
Midlife,Few,Normal,?,0,None,None,1,Some,0,None,0,0,0,0,0,0,0,0,0,0,0,0,0,0,0,?,?,0,0,0,0,0,0,0,?
Young,Few,Normal,?,0,None,None,1,?,?,?,?,?,?,?,?,?,?,?,?,?,?,?,?,?,0,?,?,0,0,0,0,0,0,0,?
Midlife,Few,Late,?,0,None,None,0,None,0,None,0,0,0,0,0,0,0,0,0,0,0,0,0,0,0,?,?,0,0,0,0,0,0,0,?
Midlife,Normal,Normal,?,0,None,None,1,Some,0,None,0,0,0,0,0,0,0,0,0,0,0,0,0,0,0,?,?,0,0,0,0,0,0,0,?
Young,Few,Early,?,0,None,None,?,?,0,None,0,0,0,0,0,0,0,0,0,0,0,0,0,0,0,?,?,0,0,0,0,0,0,0,?
Young,Few,Normal,?,0,None,None,1,?,0,None,0,0,0,0,0,0,0,0,0,0,0,0,0,0,0,?,?,0,0,0,0,0,0,0,?
Midlife,Normal,Normal,Normal,0,None,None,1,Some,0,None,0,0,0,0,0,0,0,0,0,0,0,0,0,0,0,?,?,0,0,0,0,0,0,0,?
Midlife,Normal,Normal,Normal,0,None,None,1,Normal,0,None,1,1,0,0,0,0,0,0,0,0,0,0,0,1,1,16,16,1,0,1,1,0,0,0,?
Midlife,Normal,Normal,None,0,None,None,0,None,0,None,0,0,0,0,0,0,0,0,0,0,0,0,0,0,0,?,?,0,0,0,0,0,0,0,?
Midlife,Few,Late,Normal,0,None,None,0,None,0,None,0,0,0,0,0,0,0,0,0,0,0,0,0,0,0,?,?,0,0,0,0,0,0,0,?
Midlife,Normal,Normal,Normal,0,None,None,0,None,0,None,0,0,0,0,0,0,0,0,0,0,0,0,0,0,0,?,?,0,0,0,0,0,0,0,?
Midlife,Normal,Normal,None,0,None,None,1,?,0,None,1,1,0,0,0,0,0,1,0,0,0,0,0,0,1,11,11,0,0,0,0,0,0,0,?
Midlife,Normal,Normal,Normal,0,None,None,0,None,0,None,0,0,0,0,0,0,0,0,0,0,0,0,0,0,0,?,?,0,0,0,0,0,0,0,?
Midlife,Few,Late,None,0,None,None,0,None,0,None,0,0,0,0,0,0,0,0,0,0,0,0,0,0,0,?,?,0,0,0,0,0,0,0,?
Midlife,Normal,Early,Many,0,None,None,0,None,0,None,0,0,0,0,0,0,0,0,0,0,0,0,0,0,0,?,?,0,0,0,0,0,0,0,?
Midlife,Normal,Normal,Many,0,None,None,0,None,0,None,0,0,0,0,0,0,0,0,0,0,0,0,0,0,0,?,?,0,0,0,0,0,0,0,?
Midlife,Normal,Late,Normal,0,None,None,0,None,0,None,1,1,0,0,0,0,0,0,0,0,0,1,0,0,1,8,8,0,0,0,0,0,0,0,?
Midlife,Few,Normal,None,0,None,None,1,Some,0,None,0,0,0,0,0,0,0,0,0,0,0,0,0,0,0,?,?,0,0,0,0,0,0,0,?
Midlife,Few,?,None,0,None,None,0,None,0,None,0,0,0,0,0,0,0,0,0,0,0,0,0,0,0,?,?,0,0,0,0,0,0,0,?
Midlife,Normal,Early,None,1,Many,Normal,0,None,0,None,0,0,0,0,0,0,0,0,0,0,0,0,0,0,0,?,?,0,0,0,0,0,0,0,?
Young,Few,Early,None,0,None,None,0,None,0,None,0,0,0,0,0,0,0,0,0,0,0,0,0,0,0,?,?,0,0,0,0,0,0,0,?
Midlife,Normal,?,None,0,None,None,1,?,0,None,0,0,0,0,0,0,0,0,0,0,0,0,0,0,0,?,?,0,0,0,0,0,0,0,?
Midlife,Many,?,Normal,1,Normal,Normal,1,?,0,None,0,0,0,0,0,0,0,0,0,0,0,0,0,0,0,?,?,0,0,0,0,0,0,0,?
Midlife,Normal,Normal,Normal,0,None,None,1,Normal,0,None,0,0,0,0,0,0,0,0,0,0,0,0,0,0,0,?,?,0,0,0,0,0,0,0,?
Midlife,Normal,Normal,Normal,0,None,None,1,?,1,Normal,0,0,0,0,0,0,0,0,0,0,0,0,0,0,0,?,?,1,0,0,1,0,0,0,?
Young,Few,Normal,Normal,0,None,None,1,Normal,0,None,0,0,0,0,0,0,0,0,0,0,0,0,0,0,0,?,?,0,0,0,0,0,0,0,?
Young,Few,Early,None,0,None,None,0,None,0,None,0,0,0,0,0,0,0,0,0,0,0,0,0,0,0,?,?,0,0,0,0,0,0,0,?
Midlife,Normal,Normal,Normal,1,Normal,?,1,Some,0,None,0,0,0,0,0,0,0,0,0,0,0,0,0,0,0,?,?,0,0,0,0,0,0,0,?
Midlife,Normal,Early,Normal,0,None,None,1,Some,0,None,0,0,0,0,0,0,0,0,0,0,0,0,0,0,0,?,?,0,0,0,0,0,0,0,?
Young,Many,Early,Normal,1,Normal,?,1,Normal,1,?,0,0,0,0,0,0,0,0,0,0,0,0,0,0,0,?,?,0,0,0,0,0,0,0,?
Young,Few,Early,Normal,0,None,None,1,?,0,None,0,0,0,0,0,0,0,0,0,0,0,0,0,0,0,?,?,0,0,0,0,0,0,0,?
Midlife,Few,Normal,Normal,0,None,None,0,None,0,None,0,0,0,0,0,0,0,0,0,0,0,0,0,0,0,?,?,0,0,0,0,0,0,0,?
Midlife,Normal,Late,Normal,0,None,None,0,None,0,None,0,0,0,0,0,0,0,0,0,0,0,0,0,0,0,?,?,0,0,0,0,0,0,0,?
Midlife,Normal,Normal,Normal,0,None,None,1,?,0,None,0,0,0,0,0,0,0,0,0,0,0,0,0,0,0,?,?,0,0,0,0,0,0,0,?
Midlife,Normal,Normal,Normal,1,Normal,?,1,Normal,0,None,1,1,0,0,0,0,0,0,0,0,0,0,0,1,0,?,?,1,0,1,0,0,0,0,?
Young,Few,Early,None,0,None,None,0,None,0,None,0,0,0,0,0,0,0,0,0,0,0,0,0,0,0,?,?,0,0,0,0,0,0,0,?
Young,Few,Early,Normal,0,None,None,0,None,0,None,0,0,0,0,0,0,0,0,0,0,0,0,0,0,0,?,?,0,0,0,0,0,0,0,?
Midlife,Normal,Normal,Normal,0,None,None,1,Normal,0,None,0,0,0,0,0,0,0,0,0,0,0,0,0,0,0,?,?,0,0,0,0,0,0,0,?
Midlife,Normal,Normal,None,0,None,None,0,None,0,None,0,0,0,0,0,0,0,0,0,0,0,0,0,0,0,?,?,0,0,0,0,0,0,0,?
Midlife,Few,Normal,Normal,0,None,None,1,Normal,0,None,0,0,0,0,0,0,0,0,0,0,0,0,0,0,0,?,?,0,0,0,0,0,0,0,?
Young,Few,Normal,None,0,None,None,1,?,0,None,0,0,0,0,0,0,0,0,0,0,0,0,0,0,0,?,?,0,0,0,0,0,0,1,?
Midlife,Few,Late,Normal,0,None,None,1,?,0,None,0,0,0,0,0,0,0,0,0,0,0,0,0,0,0,?,?,0,0,0,0,0,0,0,?
Midlife,Few,Normal,Normal,0,None,None,1,?,0,None,0,0,0,0,0,0,0,0,0,0,0,0,0,0,0,?,?,0,0,0,0,0,0,0,?
